<svg xmlns="http://www.w3.org/2000/svg" viewBox="6796 1399.327 17.6 13.4">
  <defs>
    <style>
      .cls-1 {
        fill: #338dd0;
        fill-rule: evenodd;
      }
    </style>
  </defs>
  <path id="path" class="cls-1" d="M9,16.2,4.8,12,3.4,13.4,9,19,21,7,19.6,5.6Z" transform="translate(6792.6 1393.727)"/>
</svg>
