<?xml version="1.0" encoding="utf-8"?>
<!-- Generator: Adobe Illustrator 21.0.0, SVG Export Plug-In . SVG Version: 6.00 Build 0)  -->
<svg version="1.1" id="Capa_1" xmlns="http://www.w3.org/2000/svg" xmlns:xlink="http://www.w3.org/1999/xlink" x="0px" y="0px"
	 viewBox="0 0 300 300" style="enable-background:new 0 0 300 300;" xml:space="preserve">
<style type="text/css">
	.st0{fill:#FFFFFF;}
</style>
<title>iconos_web_sb</title>
<path class="st0" d="M262.7,106.8h-75.5c-1.9-9-10.2-17-23.9-23c-14.4-6.3-33.4-9.8-53.5-9.8s-39.1,3.5-53.5,9.8
	C40.6,90.6,32,100.2,32,110.9c0,0.2,0,0.4,0,0.6c0,0.1,0,0.2,0,0.3v78.3c0,0.1,0,0.2,0,0.4c0.1,1,1,10.2,12,19
	c12.5,10.1,32.6,15.6,59.8,16.4c0.6,0.2,1.2,0.2,1.8,0.1c1.9,0,3.9,0.1,5.9,0.1h151.1c2.8,0,5-2.2,5-5c0,0,0,0,0,0V111.8
	C267.7,109,265.5,106.8,262.7,106.8C262.7,106.8,262.7,106.8,262.7,106.8z M109.8,84c40,0,67.8,14.2,67.8,26.9s-27.9,26.9-67.8,26.9
	S42,123.6,42,110.9S69.9,84,109.8,84z M257.7,216H248v-28c0-2.8-2.2-5-5-5s-5,2.2-5,5v28h-9v-28c0-2.8-2.2-5-5-5s-5,2.2-5,5v28h-10
	v-28c0-2.8-2.2-5-5-5s-5,2.2-5,5v28h-11v-52c0-2.8-2.2-5-5-5s-5,2.2-5,5v52h-9v-28c0-2.8-2.2-5-5-5s-5,2.2-5,5v28h-10v-28
	c0-2.8-2.2-5-5-5s-5,2.2-5,5v28h-9v-28c0-2.8-2.2-5-5-5s-5,2.2-5,5v28h-8.4c-0.6,0-1.1,0-1.6,0v-28c0-2.8-2.2-5-5-5s-5,2.2-5,5v27.7
	c-3.6-0.2-6.9-0.5-10-0.8V164c0-2.8-2.2-5-5-5s-5,2.2-5,5v49.4c-14.7-2.7-23.5-7.2-28.8-11.1c-7.9-6-9.1-11.8-9.2-12.6v-60.4
	c4.3,3.5,9.2,6.4,14.3,8.6c14.4,6.3,33.4,9.8,53.5,9.8s39.1-3.5,53.5-9.8c12.7-5.6,20.8-12.9,23.4-21.2h71L257.7,216z"/>
<path class="st0" d="M110.7,131.3c19.2,0,38.7-6.4,38.7-18.7S130,94,110.7,94c-19.2,0-38.7,6.4-38.7,18.7S91.5,131.3,110.7,131.3z
	 M110.7,104c18.6,0,28.7,6.1,28.7,8.7s-10,8.7-28.7,8.7c-18.6,0-28.7-6.1-28.7-8.7S92.1,104,110.7,104z"/>
</svg>
