<?xml version="1.0" encoding="utf-8"?>
<!-- Generator: Adobe Illustrator 21.0.0, SVG Export Plug-In . SVG Version: 6.00 Build 0)  -->
<svg version="1.1" id="Capa_1" xmlns="http://www.w3.org/2000/svg" xmlns:xlink="http://www.w3.org/1999/xlink" x="0px" y="0px"
	 viewBox="0 0 639.2 171.6" style="enable-background:new 0 0 639.2 171.6;" xml:space="preserve">
<style type="text/css">
	.st0{fill:#FFFFFF;}
</style>
<title>iconos_web_sb</title>
<path class="st0" d="M122.7,9.8l-1.5,5.3l0.4,0.2l0.4-0.4l1.1-1.7c1.1-1.1,3.2-1.5,6.4-1.5l9.2-0.2v22c0,6.2,0,9.8-0.4,11.1
	c-0.2,1.9-0.6,2.8-1.7,3l-1.7,0.2l-0.6,0.2l0.8,0.4H149c0.6,0,0.9-0.2,0.9-0.4l-0.4-0.2l-2.8-0.2c-1.5-0.2-2.5-1.5-2.3-3l-0.2-11.1
	v-22l7.7,0.2c4.9,0.2,7.5,1.1,7.5,3l0.2,0.4l0.6,0.9c0.2,0,0.4-0.2,0.4-0.7V9.8c0-0.4,0-0.8-0.2-0.8l-1.9,0.4l-4.3,0.2h-23.2
	l-4.9-0.2l-2.8-0.7L122.7,9.8z"/>
<path class="st0" d="M181.6,9.4l-1.1,0.4c0,0.2,0.2,0.2,0.4,0.2l2.1,0.2c0.8,0.1,1.6,0.5,2.1,1.1c0.4,0.2,0.6,0.8,0.6,1.9l0.2,20.3
	c0.1,3.7-0.1,7.4-0.4,11.1c-0.4,1.9-0.9,2.8-1.7,3l-1.9,0.2l-0.4,0.2c0,0.2,0.2,0.4,0.9,0.4h13.4c0.8,0,1.1-0.2,1.1-0.4
	c0-0.2-0.2-0.2-0.4-0.2l-3-0.2c-0.6-0.1-1.2-0.4-1.7-0.8l-0.6-2.1L191,33.5v-1.3l0.2-0.4h7.7c0.3,0,0.7,0.2,0.9,0.4l6.8,7.7l4.5,4.7
	c1.1,1.2,2.4,2.1,3.8,2.8l6.6,1.1h4.5l1.5-0.4l-0.6-0.2l-2.3-0.2c-2.9-0.4-5.6-1.6-7.7-3.6L204,30.7c5.1-3.8,7.4-7.9,7.4-12.2
	c-0.1-1.6-0.6-3.1-1.5-4.5l-2.8-2.6c-2.6-1.5-6.2-2.1-11.3-2.1L181.6,9.4z M191,12l0.4-0.4l4-0.4c3.4,0,6.2,0.9,7.9,2.8
	c1.9,1.9,2.8,4.3,2.8,7.7c0,3.6-1.1,6.4-3.6,7.7l-4.7,1.1l-6.6-0.6L191,29L191,12z"/>
<path class="st0" d="M244.3,11.3l0.6,1.9v20.3c0,6.2,0,9.8-0.2,11.1c-0.2,1.9-0.8,2.8-1.7,3l-1.9,0.2c-0.4,0-0.6,0-0.6,0.2
	c0,0.2,0.4,0.4,1.1,0.4l21.3,0.2l2.6-0.2l0.8-1.1c0.6-1.6,0.9-3.4,0.9-5.1c0-0.4,0-0.9-0.2-0.9c-0.4,0-0.6,0.4-0.6,0.9
	c-0.2,1.7-1.3,3.1-2.8,3.8l-6,0.4l-5.8-0.8c-0.8-0.4-1.5-1.5-1.5-3.2V29c0-0.4,0-0.4,0.4-0.4l8.7,0.2c1.9,0.2,3,0.9,3.4,1.9l0.2,1.7
	l0.4,0.4c0.2,0,0.4-0.4,0.4-1.1l0.2-3.2l0.6-3l-0.4-0.4l-0.9,0.8c-1,0.3-2,0.4-3,0.4l-9.8,0.2l-0.4-0.4V12l0.4-0.4h8.5
	c2.4,0.2,3.8,0.9,4.5,1.7c0,0.4,0.2,1.1,0.2,1.9l0.6,0.6l0.4-0.4l0.2-3.4l0.4-2.6L265.4,9l-0.9,0.4h-23.9c-0.6,0-1.1,0-1.1,0.4
	c0,0.2,0.2,0.2,0.6,0.2l2.1,0.2C243.1,10.4,243.8,10.8,244.3,11.3"/>
<path class="st0" d="M310.7,9.2l-6-0.4c-3.8,0-6.8,0.6-9.2,2.6c-2.3,1.4-3.7,3.9-3.6,6.6c0,1.9,0.6,3.8,1.7,5.3
	c1.1,1.9,3.4,3.8,6.4,6l2.8,1.9c2.1,1.2,4,2.8,5.5,4.7c1,1.3,1.6,2.9,1.5,4.5c0,1.9-0.7,3.7-2.1,4.9c-1.9,1.4-4.2,2.2-6.6,2.1
	c-5.3,0-8.3-1.7-9.2-5.3l-0.2-1.9l-0.4-0.4c-0.4,0-0.4,0-0.6,0.6l-0.2,5.6l0.2,1.5l0.8,0.4c2.6,1.1,5.5,1.6,8.3,1.5
	c3.2,0,6.3-0.7,9.2-2.1c3.6-2.1,5.3-5.1,5.3-8.7c0-2-0.6-4-1.7-5.8c-2.1-2.5-4.5-4.5-7.3-6.2l-1.9-1.3l-5.8-4.7
	c-1.1-1.1-1.7-2.5-1.7-4.1c0.1-1.7,0.8-3.3,2.1-4.5c1.7-1,3.6-1.5,5.5-1.5c4,0,6.4,1.1,7.7,2.8c0.5,0.8,0.8,1.6,0.9,2.6
	c0,0.4,0,0.6,0.4,0.6c0.2,0,0.4-0.4,0.4-1.1l0.2-5.5c0-0.2-0.2-0.4-0.4-0.4L310.7,9.2z"/>
<path class="st0" d="M417.8,10l-0.9-1.3L416,9.4l-18.3,32.4l-19-32.4l-1.1-0.6l-0.4,0.9l-4.7,33.7l-0.4,2.8
	c-0.2,0.9-0.9,1.3-1.9,1.5l-1.9,0.2l-0.6,0.2c0,0.2,0.4,0.4,1.1,0.4h11.1c0.6,0,1.1-0.2,1.1-0.4l-0.4-0.2l-2.3-0.4
	c-1.3,0-1.7-0.6-1.7-1.5v-2.8l2.6-23.7h0.2l8.1,14.5l7.5,12.2l1.7,2.1l2.1-2.6l15.1-26.9h0.2l3,26.7l-0.2,1.9l-0.4,0.4l1.7,0.4
	l10.5,0.2c0.8,0,1.1-0.2,1.1-0.4c0-0.2,0-0.2-0.2-0.2l-4-0.4c-1.2-0.4-2.2-1.2-2.8-2.3l-0.9-3.2L417.8,10z"/>
<path class="st0" d="M466,10.5l-1.3-1.7c-0.4,0-0.9,0.7-1.3,1.9l-14.3,32.2l-1.9,3.2c-0.8,1-1.9,1.6-3.2,1.7h-1.7
	c-0.4,0-0.6,0-0.6,0.2s0.4,0.4,1.1,0.4h12l0.8-0.4l-0.4-0.2h-0.6c-1.7,0-2.6-0.4-2.6-1.7c0.1-1.1,0.5-2.2,1.1-3.2l3.6-9.4l0.6-0.2
	h13.2c0.4,0,0.6,0,0.6,0.2l5.8,12.6c0.4,0.5,0.3,1.2-0.2,1.6c-0.1,0-0.1,0.1-0.2,0.1l-0.2,0.2l1.7,0.2l9.6,0.2L489,48l-0.9-0.2
	l-2.3-0.4c-1.9-0.4-3.6-2.3-5.3-5.5L466,10.5z M463.2,17.1c0.4-0.6,0.4-0.6,0.9,0l6,14.1l-0.2,0.2h-11.9c-0.2,0-0.2-0.2-0.2-0.2
	L463.2,17.1z"/>
<path class="st0" d="M505.7,9.4c-0.4,0-0.9,0-0.9,0.4l0.4,0.2l2.1,0.2c0.8,0.1,1.6,0.5,2.1,1.1l0.4,1.9l0.2,20.3l-0.2,11.1
	c-0.4,1.9-1.1,2.8-1.9,3l-1.7,0.2c-0.4,0-0.6,0-0.6,0.2c0,0.2,0.4,0.4,1.1,0.4h13.4c0.6,0,1-0.2,1-0.4c0-0.2-0.2-0.2-0.6-0.2
	l-2.8-0.2c-1.5-0.2-2.4-1.1-2.4-3c-0.2-1.3-0.2-4.9-0.2-11.1v-1.3l0.2-0.4h7.7l0.8,0.4l6.8,7.7l4.5,4.7c1,1.2,2.4,2.1,3.8,2.8
	l6.6,1.1h4.2l1.5-0.4l-0.4-0.2l-2.4-0.2c-2.8-0.2-5.1-1.5-7.7-3.6l-13-13.2c5.1-3.8,7.7-7.9,7.7-12.2c0-2.8-1.3-5.1-4.3-7
	c-2.6-1.5-6.4-2.1-11.3-2.1H505.7z M527.6,13.9c1.9,1.9,2.8,4.3,2.8,7.7c0,3.6-1.3,6.4-3.8,7.7l-4.5,1.1l-6.6-0.6l-0.2-0.7V12
	l0.2-0.4l4.3-0.4C523.1,11.1,525.7,12,527.6,13.9"/>
<path class="st0" d="M565,9.4c-0.6,0-1.1,0-1.1,0.4l0.4,0.2l2.1,0.2c0.8,0.1,1.5,0.5,2.1,1.1l0.6,1.9v20.3L569,44.6
	c-0.4,1.9-0.9,2.8-1.9,3l-1.7,0.2c-0.4,0-0.4,0-0.4,0.2c0,0.2,0.2,0.4,0.8,0.4l21.6,0.2l2.1-0.2l1.1-1.1c0.4-1.7,0.7-3.4,0.9-5.1
	c0-0.4,0-0.9-0.4-0.9c-0.4,0-0.4,0.4-0.4,0.9c-0.6,1.9-1.5,3.2-2.8,3.8l-6.2,0.4l-5.6-0.8c-1.1-0.4-1.5-1.5-1.5-3.2V29l0.4-0.4
	l8.7,0.2c1.9,0.2,3,0.9,3.4,1.9l0.2,1.7l0.4,0.4l0.4-1.1l0.2-3.2l0.4-3l-0.2-0.4l-0.9,0.8l-3,0.4l-9.8,0.2l-0.4-0.4V12l0.4-0.4h8.6
	c2.3,0.2,3.8,0.9,4.2,1.7l0.4,1.9c0,0.6,0.2,0.6,0.4,0.6c0.2,0,0.4,0,0.4-0.4l0.4-3.4l0.4-2.6L589.5,9l-0.6,0.4L565,9.4L565,9.4z"/>
<path class="st0" d="M634.7,9.2L629,8.8c-3.9,0-7,0.6-9.4,2.6c-2.2,1.5-3.4,4-3.4,6.6c-0.1,1.9,0.4,3.8,1.5,5.3c1.8,2.3,4,4.3,6.4,6
	l2.8,1.9l5.8,4.7c1,1.3,1.6,2.9,1.5,4.5c0,1.9-0.8,3.6-2.1,4.9c-2,1.4-4.4,2.2-6.8,2.1c-5.1,0-8.1-1.7-8.9-5.3l-0.4-1.9l-0.2-0.4
	c-0.4,0-0.4,0-0.4,0.6c-0.3,1.8-0.4,3.7-0.4,5.6l0.2,1.5l0.6,0.4l8.3,1.5c3.3,0,6.5-0.7,9.4-2.1c1.8-1.2,3.3-2.8,4.3-4.7
	c0.7-1.2,1.1-2.6,1.1-4.1c0-2-0.6-4-1.7-5.8c-2.1-2.5-4.6-4.6-7.5-6.2l-1.7-1.3c-2.2-1.3-4.2-2.9-6-4.7c-2.2-2.1-2.3-5.6-0.2-7.8
	c0.2-0.3,0.5-0.5,0.8-0.7c1.7-1,3.6-1.6,5.5-1.5c3.6,0,6.2,1.1,7.7,2.8l0.9,2.6l0.4,0.6c0.2,0,0.4-0.4,0.4-1.1l0.2-5.5l-0.7-0.4
	L634.7,9.2z"/>
<path class="st0" d="M5.8,99.7c39.5,9.6,69.5,11.1,98.2,9.3s92.3-3.7,127.2,1.5c34.8,5.1,79.1,14.5,134.8,58.8c0,0,3.6,5.8-5.7-0.9
	c-21.8-16.8-48.2-32.7-69-39.6c0,0-45.7-16.6-81-16.3c-35.3,0.3-88.6,2.4-111.4,3.1c-22.8,0.7-55.7,1.2-88.2-10.7
	C-5.7,98.9,0.3,98.2,5.8,99.7"/>
<path class="st0" d="M8.6,110.9c14.9,5.2,55,14.3,102.5,9.9c47.5-4.4,95.8-7.3,117.7-4.3c21.9,3-7.4,0.8-31.8,2.2
	c-16.6,0.8-62,5.7-92.4,7.5s-41.3,0.3-55.8-2.3c-14.5-2.6-32.8-7.8-40.2-10.9C5.5,111.8,3.7,109.2,8.6,110.9"/>
<path class="st0" d="M53.3,129.2c12.1,3.4,44.2,8.5,81.5,2.7c37.3-5.9,75.4-10.6,92.9-9.3c17.5,1.3-5.8,1-25,3.4
	c-13.1,1.4-48.8,7.6-72.7,10.6c-23.9,3-32.6,2.3-44.2,1c-11.6-1.3-26.4-4.5-32.3-6.6C50.9,130.1,49.4,128.2,53.3,129.2"/>
<path class="st0" d="M135.4,76.8c0-3.6,0-4.3,0-5c0-0.8-0.2-1.2-1-1.3c-0.3,0-0.5-0.1-0.8-0.1c-0.1,0-0.2,0-0.2-0.1
	c0-0.1,0.1-0.2,0.4-0.2c1,0,2.5,0.1,2.6,0.1c0.6,0,1.5-0.1,2.5-0.1c3.8,0,4.6,2.3,4.6,3.5c0,1.9-1.1,3-2.2,4.2c1.7,0.5,4,2.2,4,4.9
	c0,2.5-2,5.1-5.9,5.1c-0.3,0-1,0-1.7-0.1c-0.7,0-1.3-0.1-1.4-0.1c0,0-0.4,0-0.9,0c-0.5,0-1,0-1.3,0c-0.3,0-0.4,0-0.4-0.2
	c0-0.1,0-0.1,0.2-0.1c0.2,0,0.5,0,0.7-0.1c0.5-0.1,0.6-0.6,0.7-1.3c0.1-1,0.1-2.8,0.1-5L135.4,76.8z M137.2,77.3
	c0,0.2,0,0.2,0.2,0.3c0.5,0.1,0.9,0.1,1.4,0.1c1.3,0,1.6,0,2.1-0.6c0.6-0.7,0.8-1.5,0.8-2.3c0-1.9-0.9-4-3.1-4c-0.4,0-0.7,0-1.1,0.1
	c-0.2,0-0.3,0.1-0.3,0.3L137.2,77.3z M137.2,79.8c0,1.8,0,4.7,0,5c0.1,1.1,0.1,1.5,0.8,1.8c0.7,0.2,1.3,0.4,2,0.3
	c1.7,0.1,3.2-1.2,3.3-2.9c0-0.1,0-0.3,0-0.4c0.1-1.8-0.8-3.6-2.3-4.6c-0.6-0.4-1.2-0.6-1.9-0.7c-0.3,0-1.5,0-1.8,0
	c-0.1,0-0.1,0-0.1,0.2L137.2,79.8z"/>
<path class="st0" d="M151.4,76.8c0-3.6,0-4.3,0-5c0-0.8-0.2-1.2-1-1.3c-0.3,0-0.5-0.1-0.8-0.1c-0.1,0-0.2,0-0.2-0.1
	c0-0.1,0.1-0.2,0.4-0.2c0.5,0,1.2,0,1.7,0l1,0c0.2,0,4.8,0,5.3,0c0.3,0,0.7-0.1,1-0.1c0.1,0,0.2-0.1,0.3-0.1c0.1,0,0.1,0.1,0.1,0.2
	c0,0.2-0.1,0.4-0.2,1.1c0,0.2-0.1,1.3-0.1,1.5c0,0.1-0.1,0.3-0.2,0.3c-0.1,0-0.2-0.1-0.2-0.3c0-0.3,0-0.6-0.1-0.8
	c-0.2-0.4-0.4-0.7-1.7-0.8c-0.4,0-2.9-0.1-3.2-0.1c-0.1,0-0.1,0.1-0.1,0.2v6.4c0,0.2,0,0.2,0.1,0.2c0.3,0,3.2,0,3.7,0
	c0.6,0,0.9-0.1,1.1-0.3c0.2-0.2,0.3-0.3,0.3-0.3c0.1,0,0.1,0,0.1,0.2s-0.1,0.5-0.2,1.3c0,0.5-0.1,1.3-0.1,1.5c0,0.2,0,0.4-0.2,0.4
	c-0.1,0-0.2-0.1-0.2-0.2c0-0.3,0-0.5-0.1-0.8c-0.1-0.3-0.3-0.7-1.2-0.8c-0.6-0.1-2.9-0.1-3.3-0.1c-0.1,0-0.2,0.1-0.2,0.1
	c0,0,0,0,0,0v2c0,0.8,0,3.5,0,4c0.1,1.6,0.4,1.9,2.7,1.9c0.8,0,1.5,0,2.2-0.3c0.6-0.3,0.9-0.7,1-1.7c0-0.3,0.1-0.3,0.2-0.3
	c0.1,0,0.1,0.2,0.1,0.3c0,0.2-0.2,1.8-0.3,2.3c-0.2,0.6-0.3,0.6-1.3,0.6c-1.7,0-3,0-3.9-0.1c-0.9,0-1.5-0.1-1.8-0.1c0,0-0.4,0-0.9,0
	c-0.5,0-1,0-1.3,0c-0.3,0-0.4,0-0.4-0.2c0-0.1,0-0.1,0.2-0.1c0.2,0,0.5,0,0.7-0.1c0.5-0.1,0.6-0.6,0.7-1.3c0.1-1,0.1-2.8,0.1-5
	L151.4,76.8z"/>
<path class="st0" d="M169.3,70.7c0.3-0.8,0.4-0.9,0.5-0.9s0.2,0.1,0.5,0.8c0.3,0.9,4,10.5,5.4,14c0.8,2.1,1.5,2.4,2,2.6
	c0.3,0.1,0.6,0.1,0.9,0.1c0.1,0,0.2,0,0.2,0.1c0,0.1-0.2,0.2-0.5,0.2c-0.3,0-2,0-3.6,0c-0.4,0-0.7,0-0.7-0.2c0-0.1,0.1-0.1,0.2-0.2
	c0.1,0,0.3-0.3,0.1-0.6l-2.2-5.7c0-0.1-0.1-0.1-0.2-0.1h-5c-0.1,0-0.2,0.1-0.2,0.2l-1.4,4.1c-0.2,0.5-0.3,1-0.3,1.6
	c0,0.5,0.5,0.7,0.9,0.7h0.2c0.2,0,0.2,0,0.2,0.1c0,0.1-0.1,0.2-0.3,0.2c-0.6,0-1.6-0.1-1.8-0.1s-1.5,0.1-2.6,0.1
	c-0.3,0-0.4,0-0.4-0.2c0-0.1,0.1-0.1,0.2-0.1c0.2,0,0.5,0,0.7,0c1.1-0.1,1.5-1,2-2.2L169.3,70.7z M171.7,80c0.1,0,0.1-0.1,0.1-0.2
	l-2.2-6.3c-0.1-0.3-0.2-0.3-0.3,0l-2,6.3c0,0.1,0,0.2,0.1,0.2H171.7z"/>
<path class="st0" d="M182.8,85.5c-1.9-1.8-2.9-4.3-2.8-6.9c0-2.4,1-4.6,2.6-6.3c1.4-1.4,3.5-2.5,7.1-2.5c1.1,0,2.3,0.1,3.4,0.3
	c0.8,0.2,1.6,0.3,2.4,0.3c0.3,0,0.3,0.1,0.3,0.3c0,0.2-0.1,0.5-0.1,1.3c0,0.8,0,2-0.1,2.4s-0.1,0.5-0.2,0.5c-0.2,0-0.2-0.2-0.2-0.5
	c0-0.9-0.3-1.7-1-2.4c-1.4-0.9-3-1.4-4.6-1.3c-3.1,0-4.5,0.9-5.3,1.7c-1.7,1.6-2.1,3.7-2.1,6.1c-0.1,4.6,3.6,8.4,8.3,8.5
	c0,0,0.1,0,0.1,0c1.7,0,3.1-0.2,4-1.2c0.4-0.6,0.7-1.2,0.9-1.9c0-0.3,0.1-0.3,0.2-0.3c0.1,0,0.2,0.2,0.2,0.3c-0.1,1-0.3,2-0.5,3
	c-0.1,0.4-0.2,0.5-0.6,0.7c-1.4,0.4-2.8,0.6-4.2,0.5C186.9,88,184.6,87.1,182.8,85.5z"/>
<path class="st0" d="M215.7,80.9c0,2.2,0,4.1,0.1,5c0.1,0.7,0.2,1.2,0.9,1.3c0.3,0.1,0.7,0.1,1,0.1c0.1,0,0.2,0.1,0.2,0.1
	c0,0.1-0.1,0.2-0.4,0.2c-1.3,0-2.7-0.1-2.9-0.1c-0.1,0-1.6,0.1-2.3,0.1c-0.3,0-0.4,0-0.4-0.2c0-0.1,0-0.1,0.2-0.1
	c0.2,0,0.5,0,0.7-0.1c0.5-0.1,0.6-0.6,0.7-1.3c0.1-1,0.1-2.8,0.1-5v-2.4c0-0.1-0.1-0.1-0.1-0.1c0,0,0,0,0,0h-9.8
	c-0.1,0-0.1,0-0.1,0.1c0,0,0,0,0,0v2.4c0,2.2,0,4.1,0.1,5c0.1,0.7,0.2,1.2,0.9,1.3c0.3,0.1,0.7,0.1,1,0.1c0.1,0,0.2,0.1,0.2,0.1
	c0,0.1-0.1,0.2-0.4,0.2c-1.3,0-2.7-0.1-2.9-0.1c-0.1,0-1.6,0.1-2.3,0.1c-0.3,0-0.4,0-0.4-0.2c0-0.1,0-0.1,0.2-0.1
	c0.2,0,0.5,0,0.7-0.1c0.5-0.1,0.6-0.6,0.7-1.3c0.1-1,0.1-2.8,0.1-5v-4.1c0-3.6,0-4.3,0-5c0-0.8-0.2-1.2-1-1.3
	c-0.3,0-0.5-0.1-0.8-0.1c-0.1,0-0.2,0-0.2-0.1c0-0.1,0.1-0.2,0.4-0.2c1,0,2.5,0.1,2.6,0.1c0.1,0,1.6-0.1,2.3-0.1
	c0.3,0,0.4,0,0.4,0.2c0,0.1-0.1,0.1-0.2,0.1c-0.2,0-0.4,0-0.6,0.1c-0.6,0.1-0.8,0.5-0.9,1.3c0,0.7,0,1.4,0,5v0.5
	c0,0.1,0,0.1,0.1,0.1c0,0,0,0,0,0h9.8c0.1,0,0.1,0,0.1-0.1c0,0,0,0,0,0v-0.5c0-3.6,0-4.3,0-5c0-0.8-0.2-1.2-1-1.3
	c-0.3,0-0.5-0.1-0.8-0.1c-0.1,0-0.2,0-0.2-0.1c0-0.1,0.1-0.2,0.4-0.2c1,0,2.5,0.1,2.6,0.1c0.1,0,1.6-0.1,2.3-0.1
	c0.3,0,0.4,0,0.4,0.2c0,0.1-0.1,0.1-0.2,0.1c-0.2,0-0.4,0-0.6,0.1c-0.6,0.1-0.8,0.5-0.9,1.3c0,0.7,0,1.4,0,5L215.7,80.9z"/>
<path class="st0" d="M232.3,76.8c0-3.6,0-4.3,0-5c0-0.8-0.2-1.2-1-1.3c-0.3,0-0.5-0.1-0.8-0.1c-0.1,0-0.2,0-0.2-0.1
	c0-0.1,0.1-0.2,0.4-0.2c1,0,2.5,0.1,2.6,0.1c0.3,0,2-0.1,2.7-0.1c1.5-0.1,3,0.2,4.3,1c1,0.8,1.6,1.9,1.6,3.2c0,1.7-0.7,3.4-2.8,5.4
	c1.9,2.4,3.5,4.5,4.8,5.9c0.7,0.9,1.7,1.5,2.8,1.7c0.3,0,0.6,0.1,0.9,0.1c0.1,0,0.2,0.1,0.2,0.1c0,0.1-0.1,0.2-0.6,0.2h-1.7
	c-0.9,0.1-1.7-0.1-2.5-0.4c-1-0.5-1.8-1.7-3.1-3.4c-1-1.3-2.1-2.8-2.5-3.4c-0.1-0.1-0.2-0.1-0.3-0.1l-2.9,0c-0.1,0-0.2,0.1-0.2,0.2
	v0.6c0,2.2,0,4.1,0.1,5c0.1,0.7,0.2,1.2,0.9,1.3c0.3,0.1,0.7,0.1,1,0.1c0.1,0,0.2,0.1,0.2,0.1c0,0.1-0.1,0.2-0.4,0.2
	c-1.3,0-2.7-0.1-2.9-0.1c0,0-1.5,0.1-2.2,0.1c-0.3,0-0.4,0-0.4-0.2c0-0.1,0-0.1,0.2-0.1c0.2,0,0.5,0,0.7-0.1
	c0.5-0.1,0.6-0.6,0.7-1.3c0.1-1,0.1-2.8,0.1-5L232.3,76.8z M234.2,78.9c0,0.1,0.1,0.2,0.2,0.3c0.8,0.3,1.6,0.4,2.4,0.4
	c0.6,0,1.2-0.1,1.7-0.4c1-0.9,1.5-2.2,1.4-3.6c0-2.9-1.5-4.6-4-4.6c-0.5,0-1,0-1.6,0.1c-0.1,0-0.2,0.2-0.2,0.3L234.2,78.9z"/>
<path class="st0" d="M250.2,76.8c0-3.6,0-4.3,0-5c0-0.8-0.2-1.2-1-1.3c-0.3,0-0.5-0.1-0.8-0.1c-0.1,0-0.2,0-0.2-0.1
	c0-0.1,0.1-0.2,0.4-0.2c0.5,0,1.2,0,1.7,0l1,0c0.2,0,4.8,0,5.3,0c0.3,0,0.7-0.1,1-0.1c0.1,0,0.2-0.1,0.3-0.1c0.1,0,0.1,0.1,0.1,0.2
	c0,0.2-0.1,0.4-0.2,1.1c0,0.2-0.1,1.3-0.1,1.5c0,0.1-0.1,0.3-0.2,0.3c-0.1,0-0.2-0.1-0.2-0.3c0-0.3,0-0.6-0.1-0.8
	c-0.2-0.4-0.4-0.7-1.7-0.8c-0.4,0-2.9-0.1-3.2-0.1c-0.1,0-0.1,0.1-0.1,0.2v6.4c0,0.2,0,0.2,0.1,0.2c0.3,0,3.2,0,3.7,0
	c0.6,0,0.9-0.1,1.1-0.3c0.2-0.2,0.3-0.3,0.3-0.3c0.1,0,0.1,0,0.1,0.2s-0.1,0.5-0.2,1.3c0,0.5-0.1,1.3-0.1,1.5c0,0.2,0,0.4-0.2,0.4
	c-0.1,0-0.2-0.1-0.2-0.2c0-0.3,0-0.5-0.1-0.8c-0.1-0.3-0.3-0.7-1.2-0.8c-0.6-0.1-2.9-0.1-3.3-0.1c-0.1,0-0.2,0.1-0.2,0.1
	c0,0,0,0,0,0v2c0,0.8,0,3.5,0,4c0.1,1.6,0.4,1.9,2.7,1.9c0.8,0,1.5,0,2.2-0.3c0.6-0.3,0.9-0.7,1-1.7c0-0.3,0.1-0.3,0.2-0.3
	c0.1,0,0.1,0.2,0.1,0.3c0,0.2-0.2,1.8-0.3,2.3c-0.2,0.6-0.3,0.6-1.3,0.6c-1.7,0-3,0-3.9-0.1c-0.9,0-1.5-0.1-1.8-0.1c0,0-0.4,0-0.9,0
	c-0.5,0-1,0-1.3,0c-0.3,0-0.4,0-0.4-0.2c0-0.1,0-0.1,0.2-0.1c0.2,0,0.5,0,0.7-0.1c0.5-0.1,0.6-0.6,0.7-1.3c0.1-1,0.1-2.8,0.1-5
	L250.2,76.8z"/>
<path class="st0" d="M263.3,87.4c-0.3-0.2-0.3-0.3-0.3-0.9c0-1.2,0.1-2.1,0.1-2.5c0-0.3,0.1-0.4,0.2-0.4c0.1,0,0.2,0.1,0.2,0.3
	c0,0.3,0,0.6,0.1,0.9c0.3,1.7,1.9,2.4,3.4,2.4c1.7,0.1,3.2-1.2,3.3-2.9c0-0.1,0-0.1,0-0.2c0-1.6-0.7-2.5-2.7-4.2l-1-0.9
	c-2.5-2-3-3.5-3-5c0-2.5,1.9-4.2,4.8-4.2c0.7,0,1.5,0.1,2.2,0.2c0.3,0.1,0.5,0.1,0.8,0.1c0.2,0,0.2,0,0.2,0.2s-0.1,0.9-0.1,2.5
	c0,0.4,0,0.5-0.2,0.5c-0.1,0-0.2-0.1-0.2-0.3c0-0.4-0.1-0.8-0.3-1.2c-0.1-0.3-0.8-1.2-2.9-1.2c-1.5-0.1-2.7,1-2.8,2.4
	c0,0.1,0,0.2,0,0.3c0,1.3,0.6,2.2,2.8,3.9l0.6,0.5c2.7,2.2,3.4,3.6,3.4,5.5c0,1.5-0.7,3-2,3.9c-1,0.7-2.3,1-3.5,1
	C265.3,88,264.2,87.8,263.3,87.4z"/>
<path class="st0" d="M280.3,80.9c0,2.2,0,4.1,0.1,5c0.1,0.7,0.2,1.2,0.9,1.3c0.3,0.1,0.7,0.1,1,0.1c0.1,0,0.2,0.1,0.2,0.1
	c0,0.1-0.1,0.2-0.4,0.2c-1.3,0-2.7-0.1-2.9-0.1c-0.1,0-1.6,0.1-2.3,0.1c-0.3,0-0.4,0-0.4-0.2c0-0.1,0-0.1,0.2-0.1
	c0.2,0,0.5,0,0.7-0.1c0.5-0.1,0.6-0.6,0.7-1.3c0.1-1,0.1-2.8,0.1-5v-4.1c0-3.6,0-4.3,0-5c0-0.8-0.3-1.2-0.8-1.3
	c-0.2-0.1-0.5-0.1-0.7-0.1c-0.1,0-0.2,0-0.2-0.1c0-0.1,0.1-0.2,0.4-0.2c0.8,0,2.2,0.1,2.3,0.1c0.1,0,1.6-0.1,2.3-0.1
	c0.3,0,0.4,0,0.4,0.2c0,0.1-0.1,0.1-0.2,0.1c-0.2,0-0.4,0-0.6,0.1c-0.6,0.1-0.8,0.5-0.9,1.3c0,0.7,0,1.4,0,5L280.3,80.9z"/>
<path class="st0" d="M289,76.8c0-3.6,0-4.3,0-5c0-0.8-0.2-1.2-1-1.3c-0.3,0-0.5-0.1-0.8-0.1c-0.1,0-0.2,0-0.2-0.1
	c0-0.1,0.1-0.2,0.4-0.2c1,0,2.5,0.1,2.6,0.1c0.3,0,1.7-0.1,3.1-0.1c2.3,0,6.5-0.2,9.3,2.6c1.5,1.6,2.3,3.7,2.3,5.9
	c0,2.4-0.9,4.8-2.5,6.5c-1.9,1.9-4.4,2.8-7,2.7c-1,0-2.2-0.1-3.2-0.1c-1-0.1-1.8-0.1-1.9-0.1c0,0-0.4,0-0.9,0c-0.5,0-1,0-1.3,0
	c-0.3,0-0.4,0-0.4-0.2c0-0.1,0-0.1,0.2-0.1c0.2,0,0.5,0,0.7-0.1c0.5-0.1,0.6-0.6,0.7-1.3c0.1-1,0.1-2.8,0.1-5L289,76.8z M290.9,79.3
	c0,2.5,0,4.6,0,5c0,0.6,0.1,1.2,0.3,1.8c0.3,0.4,1.2,0.9,3.9,0.9c2.1,0,4-0.7,5.5-2.2c1.3-1.6,2-3.5,1.9-5.6c0-2.2-0.8-4.3-2.2-5.9
	c-2.2-2.3-4.8-2.6-7.6-2.6c-0.5,0-1,0-1.5,0.2c-0.2,0.1-0.3,0.3-0.3,0.5c0,0.8,0,3.2,0,4.9L290.9,79.3z"/>
<path class="st0" d="M310.4,76.8c0-3.6,0-4.3,0-5c0-0.8-0.2-1.2-1-1.3c-0.3,0-0.5-0.1-0.8-0.1c-0.1,0-0.2,0-0.2-0.1
	c0-0.1,0.1-0.2,0.4-0.2c0.5,0,1.2,0,1.7,0l1,0c0.2,0,4.8,0,5.3,0c0.3,0,0.7-0.1,1-0.1c0.1,0,0.2-0.1,0.3-0.1c0.1,0,0.1,0.1,0.1,0.2
	c0,0.2-0.1,0.4-0.2,1.1c0,0.2-0.1,1.3-0.1,1.5c0,0.1-0.1,0.3-0.2,0.3c-0.1,0-0.2-0.1-0.2-0.3c0-0.3,0-0.6-0.1-0.8
	c-0.2-0.4-0.4-0.7-1.6-0.8c-0.4,0-2.9-0.1-3.2-0.1c-0.1,0-0.1,0.1-0.1,0.2v6.4c0,0.2,0,0.2,0.1,0.2c0.3,0,3.2,0,3.7,0
	c0.6,0,0.9-0.1,1.1-0.3c0.2-0.2,0.3-0.3,0.3-0.3c0.1,0,0.1,0,0.1,0.2s-0.1,0.5-0.2,1.3c0,0.5-0.1,1.3-0.1,1.5c0,0.2,0,0.4-0.2,0.4
	c-0.1,0-0.2-0.1-0.2-0.2c0-0.3,0-0.5-0.1-0.8c-0.1-0.3-0.3-0.7-1.2-0.8c-0.6-0.1-2.9-0.1-3.3-0.1c-0.1,0-0.2,0.1-0.2,0.1
	c0,0,0,0,0,0v2c0,0.8,0,3.5,0,4c0.1,1.6,0.4,1.9,2.7,1.9c0.8,0,1.5,0,2.2-0.3c0.6-0.3,0.9-0.7,1-1.7c0-0.3,0.1-0.3,0.2-0.3
	c0.1,0,0.1,0.2,0.1,0.3c-0.1,0.8-0.2,1.5-0.3,2.3c-0.2,0.6-0.3,0.6-1.3,0.6c-1.7,0-3,0-3.9-0.1c-0.9,0-1.5-0.1-1.8-0.1
	c0,0-0.4,0-0.9,0c-0.5,0-1,0-1.3,0c-0.3,0-0.4,0-0.4-0.2c0-0.1,0-0.1,0.2-0.1c0.2,0,0.5,0,0.7-0.1c0.5-0.1,0.6-0.6,0.7-1.3
	c0.1-1,0.1-2.8,0.1-5L310.4,76.8z"/>
<path class="st0" d="M325.6,84.5c0,1.9,0.3,2.5,0.9,2.7c0.4,0.1,0.8,0.1,1.2,0.1c0.1,0,0.2,0,0.2,0.1c0,0.1-0.1,0.2-0.4,0.2
	c-1.3,0-2.3-0.1-2.5-0.1c-0.2,0-1.2,0.1-2.2,0.1c-0.2,0-0.4,0-0.4-0.2c0-0.1,0.1-0.1,0.2-0.1c0.3,0,0.6,0,1-0.1
	c0.6-0.2,0.7-0.8,0.7-3l0-13.3c0-0.9,0.1-1.2,0.3-1.2c0.2,0,0.6,0.5,0.8,0.7c0.3,0.4,3.8,4.1,7.4,8c2.3,2.5,4.8,5.3,5.6,6.1
	L338,72.8c0-1.5-0.2-2-0.9-2.2c-0.4-0.1-0.8-0.1-1.1-0.1c-0.2,0-0.2-0.1-0.2-0.2c0-0.1,0.2-0.2,0.5-0.2c1,0,2.2,0.1,2.4,0.1
	c0.3,0,1-0.1,2-0.1c0.3,0,0.4,0,0.4,0.2c0,0.1-0.1,0.2-0.3,0.2c-0.2,0-0.4,0-0.6,0.1c-0.8,0.2-0.9,0.7-0.9,2.1l0,13.6
	c0,1.5,0,1.6-0.2,1.6c-0.2,0-0.5-0.3-1.7-1.5c-0.3-0.2-3.6-3.6-6.1-6.3c-2.7-2.9-5.3-5.8-6.1-6.7L325.6,84.5z"/>
<path class="st0" d="M347.2,85.5c-1.9-1.8-2.9-4.3-2.8-6.9c0-2.4,1-4.6,2.6-6.3c1.4-1.4,3.5-2.5,7.1-2.5c1.1,0,2.3,0.1,3.4,0.3
	c0.8,0.2,1.6,0.3,2.4,0.3c0.3,0,0.3,0.1,0.3,0.3c0,0.2-0.1,0.5-0.1,1.3c0,0.8,0,2-0.1,2.4s-0.1,0.5-0.2,0.5c-0.2,0-0.2-0.2-0.2-0.5
	c0-0.9-0.3-1.7-1-2.4c-1.4-0.9-3-1.4-4.6-1.3c-3.1,0-4.5,0.9-5.3,1.7c-1.7,1.6-2.1,3.7-2.1,6.1c-0.1,4.6,3.6,8.4,8.3,8.5
	c0,0,0.1,0,0.1,0c1.7,0,3.1-0.2,4-1.2c0.4-0.6,0.7-1.2,0.9-1.9c0-0.3,0.1-0.3,0.2-0.3c0.1,0,0.2,0.2,0.2,0.3c-0.1,1-0.3,2-0.5,3
	c-0.1,0.4-0.2,0.5-0.6,0.7c-1.4,0.4-2.8,0.6-4.2,0.5C351.4,88,349,87.1,347.2,85.5z"/>
<path class="st0" d="M366.1,76.8c0-3.6,0-4.3,0-5c0-0.8-0.2-1.2-1-1.3c-0.3,0-0.5-0.1-0.8-0.1c-0.1,0-0.2,0-0.2-0.1
	c0-0.1,0.1-0.2,0.4-0.2c0.5,0,1.2,0,1.7,0l1,0c0.2,0,4.8,0,5.3,0c0.3,0,0.7-0.1,1-0.1c0.1,0,0.2-0.1,0.3-0.1c0.1,0,0.1,0.1,0.1,0.2
	c0,0.2-0.1,0.4-0.2,1.1c0,0.2-0.1,1.3-0.1,1.5c0,0.1-0.1,0.3-0.2,0.3c-0.1,0-0.2-0.1-0.2-0.3c0-0.3,0-0.6-0.1-0.8
	c-0.2-0.4-0.4-0.7-1.7-0.8c-0.4,0-2.9-0.1-3.2-0.1c-0.1,0-0.1,0.1-0.1,0.2v6.4c0,0.2,0,0.2,0.1,0.2c0.3,0,3.2,0,3.7,0
	c0.6,0,0.9-0.1,1.1-0.3c0.2-0.2,0.3-0.3,0.3-0.3c0.1,0,0.1,0,0.1,0.2s-0.1,0.5-0.2,1.3c0,0.5-0.1,1.3-0.1,1.5c0,0.2,0,0.4-0.2,0.4
	c-0.1,0-0.2-0.1-0.2-0.2c0-0.3,0-0.5-0.1-0.8c-0.1-0.3-0.3-0.7-1.2-0.8c-0.6-0.1-2.9-0.1-3.3-0.1c-0.1,0-0.2,0.1-0.2,0.1
	c0,0,0,0,0,0v2c0,0.8,0,3.5,0,4c0.1,1.6,0.4,1.9,2.7,1.9c0.8,0,1.5,0,2.2-0.3c0.6-0.3,0.9-0.7,1-1.7c0-0.3,0.1-0.3,0.2-0.3
	c0.1,0,0.1,0.2,0.1,0.3c0,0.2-0.2,1.8-0.3,2.3c-0.2,0.6-0.3,0.6-1.3,0.6c-1.7,0-3,0-3.9-0.1c-0.9,0-1.5-0.1-1.8-0.1c0,0-0.4,0-0.9,0
	c-0.5,0-1,0-1.3,0c-0.3,0-0.4,0-0.4-0.2c0-0.1,0-0.1,0.2-0.1c0.2,0,0.5,0,0.7-0.1c0.5-0.1,0.6-0.6,0.7-1.3c0.1-1,0.1-2.8,0.1-5
	L366.1,76.8z"/>
<path class="st0" d="M379.2,87.4c-0.3-0.2-0.3-0.3-0.3-0.9c0-1.2,0.1-2.1,0.1-2.5c0-0.3,0.1-0.4,0.2-0.4c0.1,0,0.2,0.1,0.2,0.3
	c0,0.3,0,0.6,0.1,0.9c0.3,1.7,1.9,2.4,3.4,2.4c1.7,0.1,3.2-1.2,3.3-2.9c0-0.1,0-0.1,0-0.2c0-1.6-0.7-2.5-2.7-4.2l-1-0.9
	c-2.5-2-3-3.5-3-5c0-2.5,1.9-4.2,4.8-4.2c0.7,0,1.5,0.1,2.2,0.2c0.3,0.1,0.5,0.1,0.8,0.1c0.2,0,0.2,0,0.2,0.2s-0.1,0.9-0.1,2.5
	c0,0.4,0,0.5-0.2,0.5c-0.1,0-0.2-0.1-0.2-0.3c0-0.4-0.1-0.8-0.3-1.2c-0.1-0.3-0.8-1.2-2.9-1.2c-1.5-0.1-2.7,1-2.8,2.4
	c0,0.1,0,0.2,0,0.3c0,1.3,0.6,2.2,2.8,3.9l0.6,0.5c2.7,2.2,3.4,3.6,3.4,5.5c0,1.5-0.7,3-2,3.9c-1,0.7-2.3,1-3.5,1
	C381.2,88,380.2,87.8,379.2,87.4z"/>
<path class="st0" d="M399.3,82.9c0.1-2.4,1.4-4.5,3.6-5.6c-0.7-0.9-1.1-2-1.1-3.2c0.3-2.5,2.5-4.4,5-4.3c1,0,1.9,0.2,2.8,0.6
	c0.2,0.1,0.3,0.3,0.3,0.6c0,0.9-0.1,1.8-0.2,2.7c-0.1,0.3-0.1,0.4-0.2,0.4c-0.1,0-0.1-0.1-0.1-0.4c0-0.7-0.2-1.4-0.7-2
	c-0.6-0.6-1.4-1-2.3-1c-1.6-0.1-2.9,1.1-3,2.7c0,0.1,0,0.2,0,0.3c0,1.8,1.3,3.3,3.7,5.9c0.8,0.9,3.6,3.5,4.4,4.2
	c0.8-1.1,1.2-2.5,1.2-3.9c0-0.4-0.1-0.8-0.4-1.1c-0.3-0.3-0.7-0.4-1.1-0.4c-0.1,0-0.3,0-0.3-0.2c0-0.1,0.2-0.2,0.4-0.2
	c0.9,0,1.9,0.1,2.8,0.2c0.3,0,0.4,0.2,0.4,0.5c-0.2,2-1,3.9-2.3,5.5c1,0.9,2.1,1.6,3.2,2.3c0.8,0.5,1.8,0.8,2.8,0.9
	c0.2,0,0.3,0,0.3,0.2c0,0.1-0.2,0.2-0.4,0.2h-2.3c-1.7,0-2.3-0.2-4.8-2.2c-1.5,1.6-3.6,2.5-5.8,2.5c-2.9,0.2-5.4-2-5.6-4.9
	C399.3,83,399.3,82.9,399.3,82.9z M410.1,85c-1.3-1.1-3.6-3.3-4.2-3.9c-1-1-1.9-2.1-2.7-3.3c-1.3,0.8-2.1,2.3-2.1,3.9
	c-0.2,2.6,1.8,4.8,4.4,5c0.1,0,0.1,0,0.2,0C407.4,86.8,408.9,86.2,410.1,85L410.1,85z"/>
<path class="st0" d="M445.8,84.7c0.1,0.8,0.3,2.1,1.3,2.5c0.5,0.1,1,0.2,1.5,0.2c0.1,0,0.2,0,0.2,0.1c0,0.1-0.2,0.2-0.5,0.2
	c-0.5,0-3,0-3.9-0.1c-0.5,0-0.7-0.1-0.7-0.2c0-0.1,0-0.1,0.2-0.2c0.1,0,0.1-0.4,0.1-0.8l-1.1-12.1h-0.1l-5.7,12.1
	c-0.5,1-0.6,1.2-0.8,1.2c-0.2,0-0.3-0.2-0.7-1.1c-0.6-1.1-2.6-5.2-2.7-5.4c-0.2-0.4-2.8-6-3.1-6.6h-0.1l-0.9,10.8c0,0.4,0,0.8,0,1.2
	c0,0.4,0.3,0.7,0.6,0.7c0.3,0.1,0.6,0.1,0.9,0.1c0.1,0,0.2,0,0.2,0.1c0,0.2-0.1,0.2-0.4,0.2c-0.9,0-2-0.1-2.2-0.1
	c-0.2,0-1.3,0.1-1.9,0.1c-0.2,0-0.4,0-0.4-0.2c0-0.1,0.1-0.1,0.2-0.1c0.2,0,0.5,0,0.7-0.1c0.8-0.1,0.8-1,0.9-1.9l1.7-15.1
	c0-0.3,0.1-0.4,0.3-0.4s0.2,0.1,0.3,0.3l7.1,14.6l6.8-14.6c0.1-0.2,0.2-0.4,0.3-0.4s0.2,0.2,0.3,0.6L445.8,84.7z"/>
<path class="st0" d="M457.1,70.7c0.3-0.8,0.4-0.9,0.5-0.9s0.2,0.1,0.5,0.8c0.3,0.9,4,10.5,5.4,14c0.8,2.1,1.5,2.4,2,2.6
	c0.3,0.1,0.6,0.1,0.9,0.1c0.1,0,0.2,0,0.2,0.1c0,0.1-0.2,0.2-0.5,0.2c-0.3,0-2,0-3.6,0c-0.4,0-0.7,0-0.7-0.2c0-0.1,0.1-0.1,0.2-0.2
	c0.1,0,0.3-0.3,0.1-0.6l-2.2-5.7c0-0.1-0.1-0.1-0.2-0.1h-5c-0.1,0-0.2,0.1-0.2,0.2l-1.4,4.1c-0.2,0.5-0.3,1-0.3,1.6
	c0,0.5,0.5,0.7,0.9,0.7h0.2c0.2,0,0.2,0,0.2,0.1c0,0.1-0.1,0.2-0.3,0.2c-0.6,0-1.6-0.1-1.8-0.1s-1.5,0.1-2.6,0.1
	c-0.3,0-0.4,0-0.4-0.2c0-0.1,0.1-0.1,0.2-0.1c0.2,0,0.5,0,0.7,0c1.1-0.1,1.5-1,2-2.2L457.1,70.7z M459.6,80c0.1,0,0.1-0.1,0.1-0.2
	l-2.2-6.3c-0.1-0.3-0.2-0.3-0.3,0l-2,6.3c0,0.1,0,0.2,0.1,0.2H459.6z"/>
<path class="st0" d="M470.4,76.8c0-3.6,0-4.3,0-5c0-0.8-0.2-1.2-1-1.3c-0.3,0-0.5-0.1-0.8-0.1c-0.1,0-0.2,0-0.2-0.1
	c0-0.1,0.1-0.2,0.4-0.2c1,0,2.5,0.1,2.6,0.1c0.3,0,2-0.1,2.7-0.1c1.5-0.1,3,0.2,4.2,1c1,0.8,1.6,1.9,1.6,3.2c0,1.7-0.7,3.4-2.8,5.4
	c1.9,2.4,3.5,4.5,4.8,5.9c0.7,0.9,1.7,1.5,2.8,1.7c0.3,0,0.6,0.1,0.9,0.1c0.1,0,0.2,0.1,0.2,0.1c0,0.1-0.1,0.2-0.6,0.2h-1.6
	c-0.9,0.1-1.7-0.1-2.5-0.4c-1-0.5-1.8-1.7-3.1-3.4c-1-1.3-2.1-2.8-2.5-3.4c-0.1-0.1-0.2-0.1-0.3-0.1l-2.9,0c-0.1,0-0.2,0.1-0.2,0.2
	v0.6c0,2.2,0,4.1,0.1,5c0.1,0.7,0.2,1.2,0.9,1.3c0.3,0.1,0.7,0.1,1,0.1c0.1,0,0.2,0.1,0.2,0.1c0,0.1-0.1,0.2-0.4,0.2
	c-1.3,0-2.7-0.1-2.9-0.1c0,0-1.5,0.1-2.2,0.1c-0.3,0-0.4,0-0.4-0.2c0-0.1,0-0.1,0.2-0.1c0.2,0,0.5,0,0.7-0.1
	c0.5-0.1,0.6-0.6,0.7-1.3c0.1-1,0.1-2.8,0.1-5L470.4,76.8z M472.3,78.9c0,0.1,0.1,0.2,0.2,0.3c0.8,0.3,1.6,0.4,2.4,0.4
	c0.6,0,1.2-0.1,1.7-0.4c1-0.9,1.5-2.2,1.4-3.6c0-2.9-1.5-4.6-4-4.6c-0.5,0-1,0-1.6,0.1c-0.1,0-0.2,0.2-0.2,0.3V78.9z"/>
<path class="st0" d="M490.3,80.9c0,2.2,0,4.1,0.1,5c0.1,0.7,0.2,1.2,0.9,1.3c0.3,0.1,0.7,0.1,1,0.1c0.1,0,0.2,0.1,0.2,0.1
	c0,0.1-0.1,0.2-0.4,0.2c-1.3,0-2.7-0.1-2.9-0.1s-1.6,0.1-2.3,0.1c-0.3,0-0.4,0-0.4-0.2c0-0.1,0-0.1,0.2-0.1c0.2,0,0.5,0,0.7-0.1
	c0.5-0.1,0.6-0.6,0.7-1.3c0.1-1,0.1-2.8,0.1-5v-4.1c0-3.6,0-4.3,0-5c0-0.8-0.3-1.2-0.8-1.3c-0.2-0.1-0.5-0.1-0.7-0.1
	c-0.1,0-0.2,0-0.2-0.1c0-0.1,0.1-0.2,0.4-0.2c0.8,0,2.2,0.1,2.3,0.1s1.6-0.1,2.3-0.1c0.3,0,0.4,0,0.4,0.2c0,0.1-0.1,0.1-0.2,0.1
	c-0.2,0-0.4,0-0.6,0.1c-0.6,0.1-0.8,0.5-0.9,1.3c0,0.7,0,1.4,0,5L490.3,80.9z"/>
<path class="st0" d="M499.6,84.5c0,1.9,0.3,2.5,0.9,2.7c0.4,0.1,0.8,0.1,1.2,0.1c0.1,0,0.2,0,0.2,0.1c0,0.1-0.1,0.2-0.4,0.2
	c-1.3,0-2.3-0.1-2.5-0.1c-0.2,0-1.2,0.1-2.2,0.1c-0.2,0-0.4,0-0.4-0.2c0-0.1,0.1-0.1,0.2-0.1c0.3,0,0.6,0,1-0.1
	c0.6-0.2,0.7-0.8,0.7-3l0-13.3c0-0.9,0.1-1.2,0.3-1.2c0.2,0,0.6,0.5,0.8,0.7c0.3,0.4,3.8,4.1,7.4,8c2.3,2.5,4.8,5.3,5.6,6.1
	L512,72.8c0-1.5-0.2-2-0.9-2.2c-0.4-0.1-0.8-0.1-1.1-0.1c-0.2,0-0.2-0.1-0.2-0.2c0-0.1,0.2-0.2,0.5-0.2c1,0,2.2,0.1,2.4,0.1
	c0.3,0,1-0.1,2-0.1c0.3,0,0.4,0,0.4,0.2c0,0.1-0.1,0.2-0.3,0.2c-0.2,0-0.4,0-0.6,0.1c-0.8,0.2-0.9,0.7-0.9,2.1l0,13.6
	c0,1.5,0,1.6-0.2,1.6c-0.2,0-0.5-0.3-1.7-1.5c-0.3-0.2-3.6-3.6-6.1-6.3c-2.7-2.9-5.3-5.8-6.1-6.7L499.6,84.5z"/>
<path class="st0" d="M524.7,70.7c0.3-0.8,0.4-0.9,0.5-0.9s0.2,0.1,0.5,0.8c0.3,0.9,4,10.5,5.4,14c0.8,2.1,1.5,2.4,2,2.6
	c0.3,0.1,0.6,0.1,0.9,0.1c0.1,0,0.2,0,0.2,0.1c0,0.1-0.2,0.2-0.5,0.2c-0.3,0-2,0-3.6,0c-0.4,0-0.7,0-0.7-0.2c0-0.1,0.1-0.1,0.2-0.2
	c0.1,0,0.3-0.3,0.1-0.6l-2.2-5.7c0-0.1-0.1-0.1-0.2-0.1h-5c-0.1,0-0.2,0.1-0.2,0.2l-1.4,4.1c-0.2,0.5-0.3,1-0.3,1.6
	c0,0.5,0.5,0.7,0.9,0.7h0.2c0.2,0,0.2,0,0.2,0.1c0,0.1-0.1,0.2-0.3,0.2c-0.6,0-1.6-0.1-1.8-0.1s-1.5,0.1-2.6,0.1
	c-0.3,0-0.4,0-0.4-0.2c0-0.1,0.1-0.1,0.2-0.1c0.2,0,0.5,0,0.7,0c1.1-0.1,1.5-1,1.9-2.2L524.7,70.7z M527.1,80c0.1,0,0.1-0.1,0.1-0.2
	l-2.2-6.3c-0.1-0.3-0.2-0.3-0.3,0l-2,6.3c0,0.1,0,0.2,0.1,0.2H527.1z"/>
<path class="st0" d="M550.9,80.9c0,2.2,0,4.1,0.1,5c0.1,0.7,0.2,1.2,0.9,1.3c0.3,0.1,0.7,0.1,1,0.1c0.1,0,0.2,0.1,0.2,0.1
	c0,0.1-0.1,0.2-0.4,0.2c-1.3,0-2.7-0.1-2.9-0.1s-1.6,0.1-2.3,0.1c-0.3,0-0.4,0-0.4-0.2c0-0.1,0-0.1,0.2-0.1c0.2,0,0.5,0,0.7-0.1
	c0.5-0.1,0.6-0.6,0.7-1.3c0.1-1,0.1-2.8,0.1-5v-9.8l-3.4,0c-1.4,0-2,0.2-2.4,0.7c-0.2,0.2-0.3,0.5-0.4,0.7c-0.1,0.2-0.1,0.2-0.2,0.2
	c-0.1,0-0.1-0.1-0.1-0.2c0-0.2,0.5-2.2,0.5-2.4c0-0.1,0.1-0.4,0.2-0.4c0.3,0.1,0.7,0.2,1,0.3c0.7,0.1,1.6,0.1,1.8,0.1h8.7
	c0.6,0,1.1,0,1.6-0.1c0.3,0,0.6-0.1,0.7-0.1c0.1,0,0.1,0.1,0.1,0.3c0,0.7-0.1,2.3-0.1,2.6c0,0.2-0.1,0.3-0.2,0.3
	c-0.1,0-0.2-0.1-0.2-0.4l0-0.3c-0.1-0.7-0.6-1.2-2.9-1.3l-2.9,0L550.9,80.9z"/>
<path class="st0" d="M568.2,69.8c5.2,0,9.1,3.3,9.1,8.7c0,5.2-3.7,9.5-9.3,9.5c-6.4,0-9-4.9-9-9.1c0-5,3.9-9,8.9-9.1
	C568,69.8,568.1,69.8,568.2,69.8z M568.7,87.1c2.1,0,6.4-1.2,6.4-8c0-5.6-3.4-8.6-7.1-8.6c-3.9,0-6.8,2.6-6.8,7.6
	C561.2,83.6,564.5,87.1,568.7,87.1L568.7,87.1z"/>
<path class="st0" d="M597.6,84.5L597.6,84.5c0.7-2.1,2.9-8.9,3.7-11.8c0.2-0.5,0.2-1,0.3-1.5c0-0.4-0.3-0.7-1.3-0.7
	c-0.1,0-0.2-0.1-0.2-0.2c0-0.1,0.1-0.2,0.4-0.2c1.2,0,2.2,0.1,2.4,0.1c0.2,0,1.2-0.1,1.9-0.1c0.2,0,0.3,0,0.3,0.1
	c0,0.1-0.1,0.2-0.2,0.2c-0.3,0-0.5,0-0.8,0.1c-0.7,0.3-1.1,1.2-1.5,2.5c-1,3-3.4,10.3-4.3,12.9c-0.6,1.7-0.7,2-1,2
	c-0.2,0-0.4-0.3-0.7-1.2l-4.6-12.9h0c-0.8,2.2-4,10.8-4.9,12.9c-0.4,1-0.5,1.2-0.8,1.2c-0.2,0-0.3-0.3-0.8-1.8l-4.1-13.8
	c-0.4-1.2-0.7-1.6-1.3-1.8c-0.3-0.1-0.7-0.1-1-0.1c-0.1,0-0.2,0-0.2-0.2c0-0.1,0.1-0.2,0.4-0.2c1.2,0,2.5,0.1,2.7,0.1
	c0.2,0,1.2-0.1,2.4-0.1c0.3,0,0.4,0.1,0.4,0.2c0,0.1-0.1,0.2-0.2,0.2c-0.3,0-0.6,0-0.9,0.1c-0.2,0.1-0.3,0.3-0.3,0.6
	c0.1,0.7,0.3,1.4,0.4,2.1c0.3,1.5,2.8,10,3.1,11.2h0l4.9-13.3c0.3-1,0.4-1.1,0.6-1.1c0.2,0,0.3,0.3,0.6,1.1L597.6,84.5z"/>
<path class="st0" d="M609.1,76.8c0-3.6,0-4.3,0-5c0-0.8-0.2-1.2-1-1.3c-0.3,0-0.5-0.1-0.8-0.1c-0.1,0-0.2,0-0.2-0.1
	c0-0.1,0.1-0.2,0.4-0.2c0.5,0,1.2,0,1.7,0l1,0c0.2,0,4.8,0,5.3,0c0.3,0,0.7-0.1,1-0.1c0.1,0,0.2-0.1,0.3-0.1c0.1,0,0.1,0.1,0.1,0.2
	c0,0.2-0.1,0.4-0.2,1.1c0,0.2-0.1,1.3-0.1,1.5c0,0.1-0.1,0.3-0.2,0.3c-0.1,0-0.2-0.1-0.2-0.3c0-0.3,0-0.6-0.1-0.8
	c-0.2-0.4-0.4-0.7-1.7-0.8c-0.4,0-2.9-0.1-3.2-0.1c-0.1,0-0.1,0.1-0.1,0.2v6.4c0,0.2,0,0.2,0.1,0.2c0.3,0,3.2,0,3.7,0
	c0.6,0,0.9-0.1,1.1-0.3c0.2-0.2,0.3-0.3,0.3-0.3c0.1,0,0.1,0,0.1,0.2s-0.1,0.5-0.2,1.3c0,0.5-0.1,1.3-0.1,1.5c0,0.2,0,0.4-0.2,0.4
	c-0.1,0-0.2-0.1-0.2-0.2c0-0.3,0-0.5-0.1-0.8c-0.1-0.3-0.3-0.7-1.2-0.8c-0.6-0.1-2.9-0.1-3.3-0.1c-0.1,0-0.2,0.1-0.2,0.1
	c0,0,0,0,0,0v2c0,0.8,0,3.5,0,4c0.1,1.6,0.4,1.9,2.7,1.9c0.8,0,1.5,0,2.2-0.3c0.6-0.3,0.9-0.7,1-1.7c0-0.3,0.1-0.3,0.2-0.3
	c0.1,0,0.1,0.2,0.1,0.3c0,0.2-0.2,1.8-0.3,2.3c-0.2,0.6-0.3,0.6-1.3,0.6c-1.7,0-3,0-3.9-0.1c-0.9,0-1.5-0.1-1.8-0.1c0,0-0.4,0-0.9,0
	c-0.5,0-1,0-1.3,0c-0.3,0-0.4,0-0.4-0.2c0-0.1,0-0.1,0.2-0.1c0.2,0,0.5,0,0.7-0.1c0.5-0.1,0.6-0.6,0.7-1.3c0.1-1,0.1-2.8,0.1-5V76.8
	z"/>
<path class="st0" d="M623.7,76.8c0-3.6,0-4.3,0-5c0-0.8-0.2-1.2-1-1.3c-0.3,0-0.5-0.1-0.8-0.1c-0.1,0-0.2,0-0.2-0.1
	c0-0.1,0.1-0.2,0.4-0.2c1,0,2.5,0.1,2.6,0.1c0.3,0,2-0.1,2.7-0.1c1.5-0.1,3,0.2,4.2,1c1,0.8,1.6,1.9,1.6,3.2c0,1.7-0.7,3.4-2.8,5.4
	c1.9,2.4,3.5,4.5,4.8,5.9c0.7,0.9,1.7,1.5,2.8,1.7c0.3,0,0.6,0.1,0.9,0.1c0.1,0,0.2,0.1,0.2,0.1c0,0.1-0.1,0.2-0.6,0.2H637
	c-0.9,0.1-1.7-0.1-2.5-0.4c-1-0.5-1.8-1.7-3.1-3.4c-1-1.3-2.1-2.8-2.5-3.4c-0.1-0.1-0.2-0.1-0.3-0.1l-2.9,0c-0.1,0-0.2,0.1-0.2,0.2
	v0.6c0,2.2,0,4.1,0.1,5c0.1,0.7,0.2,1.2,0.9,1.3c0.3,0.1,0.7,0.1,1,0.1c0.1,0,0.2,0.1,0.2,0.1c0,0.1-0.1,0.2-0.4,0.2
	c-1.3,0-2.7-0.1-2.9-0.1c0,0-1.5,0.1-2.2,0.1c-0.3,0-0.4,0-0.4-0.2c0-0.1,0-0.1,0.2-0.1c0.2,0,0.5,0,0.7-0.1
	c0.5-0.1,0.6-0.6,0.7-1.3c0.1-1,0.1-2.8,0.1-5L623.7,76.8z M625.5,78.9c0,0.1,0.1,0.2,0.2,0.3c0.8,0.3,1.6,0.4,2.4,0.4
	c0.6,0,1.2-0.1,1.7-0.4c1-0.9,1.5-2.2,1.4-3.6c0-2.9-1.5-4.6-4-4.6c-0.5,0-1,0-1.6,0.1c-0.1,0-0.2,0.2-0.2,0.3L625.5,78.9z"/>
</svg>
