<svg xmlns="http://www.w3.org/2000/svg" viewBox="298 23 311.615 40.9">
  <defs>
    <style>
      .cls-1, .cls-2 {
        fill: #386386;
      }

      .cls-2 {
        fill-rule: evenodd;
      }

      .cls-3 {
        fill: #fff;
      }

      .cls-4 {
        fill: #5494c4;
      }

      .cls-5 {
        fill: #244056;
      }
    </style>
  </defs>
  <g id="Group_9" data-name="Group 9" transform="translate(298 22.9)">
    <g id="Group_3" data-name="Group 3" transform="translate(37.766 25.733)">
      <path id="Path_4" data-name="Path 4" class="cls-1" d="M55.276,38.127h2.652V42.3a6.712,6.712,0,0,1-9.16.241A5.638,5.638,0,0,1,47,38.207a5.638,5.638,0,0,1,1.768-4.339A6.209,6.209,0,0,1,53.107,32.1a6.47,6.47,0,0,1,4.419,1.687L56.16,35.716a5.582,5.582,0,0,0-1.446-.964,3.893,3.893,0,0,0-1.446-.241,3.222,3.222,0,0,0-2.491,1.045,3.768,3.768,0,0,0-1.045,2.652,3.583,3.583,0,0,0,.964,2.652,3.218,3.218,0,0,0,2.33.964,4.667,4.667,0,0,0,2.25-.482V38.127Z" transform="translate(-47 -32.02)"/>
      <path id="Path_5" data-name="Path 5" class="cls-1" d="M72.837,32.5v2.33H66.971v2.411h5.223v2.25H66.971V41.9H73v2.25H64.4V32.5Z" transform="translate(-50.418 -32.098)"/>
      <path id="Path_6" data-name="Path 6" class="cls-1" d="M87.2,32.5h2.652V44.151H87.2l-5.544-7.312v7.312H79V32.5h2.411L87.2,40.053Z" transform="translate(-53.287 -32.098)"/>
      <path id="Path_7" data-name="Path 7" class="cls-1" d="M105.337,32.5v2.33H99.471v2.411h5.223v2.25H99.471V41.9H105.5v2.25H96.9V32.5Z" transform="translate(-56.804 -32.098)"/>
      <path id="Path_8" data-name="Path 8" class="cls-1" d="M120.962,36.357a3.425,3.425,0,0,1-2.25,3.616l2.973,4.178h-3.214L115.9,40.375h-1.848v3.777H111.4V32.5h4.419a6.467,6.467,0,0,1,3.857.884A3.376,3.376,0,0,1,120.962,36.357Zm-3.134,1.366a1.767,1.767,0,0,0,.482-1.366,1.479,1.479,0,0,0-.482-1.286,3.11,3.11,0,0,0-1.768-.321h-1.928v3.455h1.928A2.585,2.585,0,0,0,117.828,37.723Z" transform="translate(-59.652 -32.098)"/>
      <path id="Path_9" data-name="Path 9" class="cls-1" d="M135.464,44.132l-1.125-2.491h-4.9l-1.125,2.491H125.5L130.562,32.4h2.491l5.062,11.732Zm-3.536-8.2-1.446,3.375h2.973Z" transform="translate(-62.422 -32.079)"/>
      <path id="Path_10" data-name="Path 10" class="cls-1" d="M144,44.151V32.5h2.652v9.4h4.982v2.25Z" transform="translate(-66.057 -32.098)"/>
      <path id="Path_11" data-name="Path 11" class="cls-1" d="M167.869,44.132h-2.652V39.471L161.2,32.4h2.812l2.491,4.339,2.491-4.339h2.812l-4.018,7.071v4.661Z" transform="translate(-69.436 -32.079)"/>
      <path id="Path_12" data-name="Path 12" class="cls-1" d="M191.516,33.545a4.066,4.066,0,0,1,1.205,3.214,3.853,3.853,0,0,1-1.286,3.214,6.485,6.485,0,0,1-3.857,1.045h-1.527v3.134H183.4V32.5h4.178A5.919,5.919,0,0,1,191.516,33.545Zm-1.928,4.58a2.175,2.175,0,0,0,.482-1.527,1.766,1.766,0,0,0-.643-1.446,3.138,3.138,0,0,0-1.928-.4h-1.527v3.937h1.768A2.512,2.512,0,0,0,189.587,38.125Z" transform="translate(-73.798 -32.098)"/>
      <path id="Path_13" data-name="Path 13" class="cls-1" d="M207.962,36.357a3.425,3.425,0,0,1-2.25,3.616l2.973,4.178h-3.214L202.9,40.375h-1.848v3.777H198.4V32.5h4.419a6.94,6.94,0,0,1,3.937.884A3.544,3.544,0,0,1,207.962,36.357Zm-3.134,1.366a1.767,1.767,0,0,0,.482-1.366,1.479,1.479,0,0,0-.482-1.286,3.11,3.11,0,0,0-1.768-.321h-1.928v3.455h1.928A2.585,2.585,0,0,0,204.828,37.723Z" transform="translate(-76.745 -32.098)"/>
      <path id="Path_14" data-name="Path 14" class="cls-1" d="M223.037,32.5v2.33h-5.866v2.411h5.223v2.25h-5.223V41.9H223.2v2.25h-8.6V32.5Z" transform="translate(-79.927 -32.098)"/>
      <path id="Path_15" data-name="Path 15" class="cls-1" d="M233.066,39.873l2.973-7.473h2.812l-4.661,11.732h-2.25L227.2,32.4h2.812Z" transform="translate(-82.403 -32.079)"/>
      <path id="Path_16" data-name="Path 16" class="cls-1" d="M252.837,32.5v2.33h-5.866v2.411h5.223v2.25h-5.223V41.9H253v2.25h-8.6V32.5Z" transform="translate(-85.782 -32.098)"/>
      <path id="Path_17" data-name="Path 17" class="cls-1" d="M267.1,32.5h2.652V44.151H267.1l-5.544-7.312v7.312H258.9V32.5h2.411l5.785,7.553V32.5Z" transform="translate(-88.631 -32.098)"/>
      <path id="Path_18" data-name="Path 18" class="cls-1" d="M281.646,34.75v9.4h-2.652v-9.4H275.7V32.5h9.241v2.25Z" transform="translate(-91.931 -32.098)"/>
      <path id="Path_19" data-name="Path 19" class="cls-1" d="M290.5,32.5h2.652V44.151H290.5Z" transform="translate(-94.839 -32.098)"/>
      <path id="Path_20" data-name="Path 20" class="cls-1" d="M302.166,39.873l2.973-7.473h2.812l-4.661,11.732h-2.25L296.3,32.4h2.812Z" transform="translate(-95.978 -32.079)"/>
      <path id="Path_21" data-name="Path 21" class="cls-1" d="M322.946,42.446a6.209,6.209,0,0,1-4.339,1.768,6.037,6.037,0,0,1-6.107-6.107,5.757,5.757,0,0,1,1.768-4.339A6.209,6.209,0,0,1,318.607,32a6.037,6.037,0,0,1,6.107,6.107A5.934,5.934,0,0,1,322.946,42.446Zm-.884-4.259a3.572,3.572,0,0,0-1.045-2.652,3.3,3.3,0,0,0-2.491-1.125,3.425,3.425,0,0,0-2.491,1.125,3.915,3.915,0,0,0-1.045,2.652,3.573,3.573,0,0,0,1.045,2.652,3.3,3.3,0,0,0,2.491,1.125,3.425,3.425,0,0,0,2.491-1.125A3.915,3.915,0,0,0,322.062,38.187Z" transform="translate(-99.161 -32)"/>
    </g>
    <g id="Group_5" data-name="Group 5" transform="translate(0 3.877)">
      <path id="Path_22" data-name="Path 22" class="cls-2" d="M22.981,4.8h-12.7c-3.616,0-5.946,0-8.035,2.17C0,9.139,0,11.469,0,15V27.781c0,3.616,0,5.946,2.17,8.035,2.17,2.17,4.5,2.17,8.116,2.17H23.062c3.616,0,5.946,0,8.035-2.17,2.17-2.17,2.17-4.5,2.17-8.116V15c0-3.616,0-5.946-2.17-8.035C28.927,4.8,26.6,4.8,22.981,4.8" transform="translate(0 -4.8)"/>
      <g id="Group_4" data-name="Group 4" transform="translate(1.848 1.768)">
        <path id="Path_23" data-name="Path 23" class="cls-3" d="M17.085,36.57A14.785,14.785,0,1,1,31.87,21.785,14.8,14.8,0,0,1,17.085,36.57m0-28.2a13.5,13.5,0,1,0,13.5,13.5,13.477,13.477,0,0,0-13.5-13.5" transform="translate(-2.3 -7)"/>
        <path id="Path_24" data-name="Path 24" class="cls-3" d="M17.985,37.258a4.188,4.188,0,0,1-1.848-.241.6.6,0,0,1-.4-.562,35.413,35.413,0,0,1,1.848-14.785c-3.616,1.125-7.071,3.294-7.634,4.018a6.32,6.32,0,0,0,1.848.161c1.527,0,3.214,0,3.536,1.366.562,1.928-4.419,4.821-6.589,5.946a.656.656,0,0,1-.964-.241.646.646,0,0,1,.241-.884c4.1-2.17,6.027-4.018,5.946-4.5-.08-.4-1.446-.4-2.33-.4-1.366,0-3.134,0-3.214-1.446v-.08c.161-1.366,5.062-4.259,9.562-5.464A20.882,20.882,0,0,1,26.1,10.58a.648.648,0,0,1,.643,1.125,18.83,18.83,0,0,0-7.232,8.116,12.085,12.085,0,0,1,2.33-.241c3.295.08,5.223,1.848,5.384,5.062.4,6.509-7.875,12.294-7.955,12.374-.08,0-.161.08-.241.08a4.071,4.071,0,0,1-1.045.161m-1.045-1.366a8.6,8.6,0,0,0,2.089,0c1.205-.8,7.473-6.027,7.151-11.089-.161-2.17-1.205-3.455-3.134-3.777a9.949,9.949,0,0,0-4.018.241,33.486,33.486,0,0,0-2.089,14.624" transform="translate(-3.361 -7.688)"/>
      </g>
    </g>
    <g id="Group_6" data-name="Group 6" transform="translate(38.329 3.877)">
      <path id="Path_25" data-name="Path 25" class="cls-4" d="M63.449,11.789l-4.741,9.642h-2.33l-4.741-9.642V22.878H47.7V5.28H53l4.58,9.642L62.164,5.2h5.3V22.8H63.53V11.789Z" transform="translate(-47.7 -4.879)"/>
      <path id="Path_26" data-name="Path 26" class="cls-4" d="M89.665,22.9l-1.607-3.777H80.585L78.978,22.9H74.8L82.434,5.3H86.21l7.634,17.6ZM84.282,10.523l-2.25,5.143h4.419Z" transform="translate(-53.024 -4.898)"/>
      <path id="Path_27" data-name="Path 27" class="cls-4" d="M113.374,5.3h3.937V22.9h-3.937l-8.437-11.089V22.9H101V5.3h3.7l8.678,11.33Z" transform="translate(-58.171 -4.898)"/>
      <path id="Path_28" data-name="Path 28" class="cls-4" d="M133.819,8.675V22.9h-3.937V8.675H124.9V5.3h13.9V8.675Z" transform="translate(-62.867 -4.898)"/>
      <path id="Path_29" data-name="Path 29" class="cls-4" d="M158.5,5.3V8.836h-8.759v3.616h7.875v3.375h-7.875v3.7h9.08v3.455H145.8V5.3Z" transform="translate(-66.973 -4.898)"/>
      <path id="Path_30" data-name="Path 30" class="cls-4" d="M178.574,5.3h3.937V22.9h-3.937l-8.437-11.089V22.9H166.2V5.3h3.7l8.678,11.33V5.3Z" transform="translate(-70.981 -4.898)"/>
      <path id="Path_31" data-name="Path 31" class="cls-4" d="M191.9,5.3h3.937V22.9H191.9Z" transform="translate(-76.03 -4.898)"/>
      <path id="Path_32" data-name="Path 32" class="cls-4" d="M218.03,11.809l-4.741,9.642h-2.411l-4.741-9.642V22.9H202.2V5.3h5.3l4.58,9.723,4.58-9.723h5.3V22.9H218.03V11.809Z" transform="translate(-78.054 -4.898)"/>
      <path id="Path_33" data-name="Path 33" class="cls-4" d="M232.2,5.3h3.937V22.9H232.2Z" transform="translate(-83.948 -4.898)"/>
      <path id="Path_34" data-name="Path 34" class="cls-4" d="M255.2,5.3V8.836h-8.759v3.616h7.875v3.375h-7.875v3.7h9.08v3.455H242.5V5.3Z" transform="translate(-85.971 -4.898)"/>
      <path id="Path_35" data-name="Path 35" class="cls-4" d="M275.374,5.3h3.937V22.9h-3.937l-8.437-11.089V22.9H263V5.3h3.7l8.678,11.33Z" transform="translate(-89.999 -4.898)"/>
      <path id="Path_36" data-name="Path 36" class="cls-4" d="M295.819,8.675V22.9h-3.937V8.675H286.9V5.3h13.9V8.675Z" transform="translate(-94.694 -4.898)"/>
      <path id="Path_37" data-name="Path 37" class="cls-4" d="M321.73,20.389a8.839,8.839,0,0,1-6.589,2.571,9.159,9.159,0,0,1-6.589-2.571A8.849,8.849,0,0,1,305.9,13.88a8.928,8.928,0,0,1,9.241-9.08,9.158,9.158,0,0,1,6.589,2.571,8.849,8.849,0,0,1,2.652,6.509A8.55,8.55,0,0,1,321.73,20.389Zm-1.286-6.509a5.579,5.579,0,0,0-1.527-4.018,4.845,4.845,0,0,0-3.7-1.687,4.727,4.727,0,0,0-3.7,1.687A5.712,5.712,0,0,0,310,13.88a5.712,5.712,0,0,0,1.527,4.018,4.845,4.845,0,0,0,3.7,1.687,4.727,4.727,0,0,0,3.7-1.687A5.94,5.94,0,0,0,320.444,13.88Z" transform="translate(-98.427 -4.8)"/>
    </g>
    <g id="Group_8" data-name="Group 8" transform="translate(267.899 0.1)">
      <g id="Group_7" data-name="Group 7">
        <path id="Path_38" data-name="Path 38" class="cls-5" d="M335.73,28.384l.08-.161c.321-.321.723-.723,1.205-1.125L353.971,13.84h0l3.616-2.812a2.015,2.015,0,0,0,1.045-2.17,8.142,8.142,0,0,1,2.652-7.393A20.8,20.8,0,0,0,353.89.1a20.567,20.567,0,0,0-18.642,29.088A7.08,7.08,0,0,1,335.73,28.384Z" transform="translate(-333.4 -0.1)"/>
        <path id="Path_39" data-name="Path 39" class="cls-5" d="M374.422,24.384a9.891,9.891,0,0,1-1.607.161,9.589,9.589,0,0,1-2.973-.482,1.569,1.569,0,0,0-.562-.08c-.08,0-.08,0-.241.08-.563.4-1.045.8-1.527,1.205L347.905,42.3l-.08.08a6.468,6.468,0,0,1-1.125.723,19.881,19.881,0,0,0,9.723,2.491,20.473,20.473,0,0,0,20.49-20.49,10.761,10.761,0,0,0-.08-1.607A9.745,9.745,0,0,1,374.422,24.384Z" transform="translate(-336.013 -4.697)"/>
      </g>
      <path id="Path_40" data-name="Path 40" class="cls-4" d="M377.927,10.133a.677.677,0,0,0-.321-.562.6.6,0,0,0-.723,0l-.482.241c-1.045.562-2.009,1.045-3.053,1.607a2.034,2.034,0,0,1-2.411-.08,4.818,4.818,0,0,1-1.928-3.616,2.569,2.569,0,0,1,1.446-2.411c.8-.4,1.687-.884,2.571-1.366l.563-.321c.241-.161.4-.321.4-.562a.731.731,0,0,0-.321-.643.694.694,0,0,0-.482-.241,7.991,7.991,0,0,0-8.357.562q-3.5,2.411-2.893,6.027c.321,1.928-.321,3.294-2.009,4.661-.563.4-1.045.884-1.607,1.286l-1.928,1.527h.08L339.518,29.417a9.627,9.627,0,0,1-.964.884h0a4.016,4.016,0,0,0-.08,5.223,3.85,3.85,0,0,0,5.062.964,6.7,6.7,0,0,0,.964-.643h.08l19.526-16.874a14.786,14.786,0,0,1,1.768-1.366,3.124,3.124,0,0,1,3.053-.321,7.827,7.827,0,0,0,3.294.241,5.822,5.822,0,0,0,2.893-1.446,8.048,8.048,0,0,0,2.812-5.946ZM341.848,34.882a2.33,2.33,0,1,1,2.33-2.33A2.332,2.332,0,0,1,341.848,34.882Z" transform="translate(-334.214 -0.329)"/>
      <path id="Path_41" data-name="Path 41" class="cls-3" d="M345.83,11.65a.868.868,0,0,0,.241-.562,1.143,1.143,0,0,0-.161-.482c-.08-.161-.241-.161-.482-.161q-.482,0-.964.723l-.964-.562a2.927,2.927,0,0,1,.8-.884,2.615,2.615,0,0,1,1.125-.321,1.772,1.772,0,0,1,1.205.482,1.709,1.709,0,0,1,.562,1.205,1.551,1.551,0,0,1-.241.8,6.222,6.222,0,0,1-.8.964l-.964,1.045h2.089v1.045H343.5v-.884l1.607-1.607A5.861,5.861,0,0,0,345.83,11.65Z" transform="translate(-335.384 -1.927)"/>
      <path id="Path_42" data-name="Path 42" class="cls-3" d="M351.37,12.653v-.964h1.125v.964h.643V13.7h-.643v1.286H351.37V13.7H349.2v-.884L351.129,9.6h1.286l-1.848,3.053Z" transform="translate(-336.504 -1.966)"/>
      <path id="Path_43" data-name="Path 43" class="cls-3" d="M366.6,38.27V36.1h4.9v1.125L368.77,42.85h-1.607l2.652-5.464h-1.687v.884Z" transform="translate(-339.922 -7.173)"/>
    </g>
  </g>
</svg>
