<svg xmlns="http://www.w3.org/2000/svg" viewBox="890 948 14.798 19.1">
  <defs>
    <style>
      .cls-1 {
        fill: #fff;
      }
    </style>
  </defs>
  <path id="Path_1" data-name="Path 1" class="cls-1" d="M14.5,5.2A7.154,7.154,0,0,0,9.3.3,6.149,6.149,0,0,0,8.2,0H6.8c-.3,0-.6.1-.9.1A7.345,7.345,0,0,0,.3,5.5,5.876,5.876,0,0,0,.7,10a24.95,24.95,0,0,0,2.1,3.5,49.432,49.432,0,0,0,3.6,4.4,9.016,9.016,0,0,1,.9,1,.349.349,0,0,1,.1.2h.1a6.47,6.47,0,0,0,.8-.9A39.63,39.63,0,0,0,13,12.1a12.638,12.638,0,0,0,1.3-2.6A5.827,5.827,0,0,0,14.5,5.2ZM7.4,10.9a3.4,3.4,0,1,1,3.4-3.4A3.372,3.372,0,0,1,7.4,10.9Z" transform="translate(889.978 948)"/>
</svg>
