<svg xmlns="http://www.w3.org/2000/svg" viewBox="1550.715 1453.671 53.405 47.329">
  <defs>
    <style>
      .cls-1 {
        fill: #244056;
      }
    </style>
  </defs>
  <g id="Group_11" data-name="Group 11" transform="translate(1540.38 1450.865)">
    <path id="Path_46" data-name="Path 46" class="cls-1" d="M57.55,12.973a.893.893,0,0,0-.424-.742.8.8,0,0,0-.955,0l-.636.318c-1.379.742-2.651,1.379-4.03,2.121a2.685,2.685,0,0,1-3.182-.106,6.359,6.359,0,0,1-2.545-4.773A3.391,3.391,0,0,1,47.687,6.61c1.061-.53,2.227-1.167,3.394-1.8l.636-.424c.318-.212.53-.424.53-.742a.965.965,0,0,0-.424-.848.917.917,0,0,0-.636-.318c-4.03-1.909-7.636-1.7-10.924.636q-4.613,3.182-3.818,7.954c.424,2.545-.424,4.348-2.651,6.151-.742.53-1.379,1.167-2.121,1.7l-2.545,2.015h.106L6.749,38.427a12.71,12.71,0,0,1-1.273,1.167h0a5.3,5.3,0,0,0-.106,6.894,5.081,5.081,0,0,0,6.682,1.273,8.847,8.847,0,0,0,1.273-.848h.106L39.2,24.64a19.509,19.509,0,0,1,2.333-1.8,4.124,4.124,0,0,1,4.03-.424,10.33,10.33,0,0,0,4.348.318,7.684,7.684,0,0,0,3.818-1.909,11.137,11.137,0,0,0,3.818-7.848ZM9.93,45.639a3.076,3.076,0,1,1,3.076-3.076A3.078,3.078,0,0,1,9.93,45.639Z" transform="translate(6.189 1.621)"/>
  </g>
</svg>
