<svg xmlns="http://www.w3.org/2000/svg" viewBox="115 57.68 222.765 113.242">
  <defs>
    <style>
      .cls-1 {
        fill: #0c326b;
      }

      .cls-2 {
        fill: #ed7e38;
      }

      .cls-3 {
        fill: #a1d1e5;
      }
    </style>
  </defs>
  <g id="Group_3" data-name="Group 3" transform="translate(114.922 57.681)">
    <path id="Path_1" data-name="Path 1" class="cls-1" d="M81.329,27.586h0c-1.829,1.372-3.886,2.591-4.877,4.725a7.508,7.508,0,0,1-1.3.152c-.61.61-1.3,1.219-1.905,1.753-.076.3-.152.991-.229,1.3a8.44,8.44,0,0,0,1.448-.152c.762-.914,1.448-1.905,2.134-2.82,1.981-1.143,3.81-2.439,5.715-3.658.076-.533.152-.991.229-1.524-.3.076-.914.152-1.219.229m-4.267-2.667h0c-.686.914.914,1.905,1.448.914C79.272,25,77.672,24,77.062,24.919Zm14.631-3.048h0a22.7,22.7,0,0,0,5.792-3.886,3.825,3.825,0,0,0,.152-.914c-.3,0-.991.076-1.3.076C94.742,18.594,92.227,19.508,91.693,21.871ZM8.172.3c1.829-.762,3.81.076,5.563.61,2.515,1.3,4.877,2.9,7.316,4.42.991.533,2.058,1.067,3.048,1.677.457.152.991.3,1.524.533,1.829.61,3.734,1.3,4.953,2.972a73.014,73.014,0,0,1,6.249,9.754c1.753,3.277.991,7.087,1.067,10.669-.152,2.667.61,5.258.838,7.925.3.838.533,1.6.838,2.439C40.255,45.266,41.855,49,43,52.886c.3.61.61,1.3.914,1.905,1.143,2.591,1.981,5.334,3.124,7.925a3.241,3.241,0,0,1,.152.838c.457,1.143.914,2.286,1.3,3.429.457,0,1.219-.152,1.677-.152.229-2.21-.3-4.649.991-6.63.076-.457.3-1.219.381-1.677.381-.991.686-1.905,1.067-2.9,0-.229.076-.61.076-.838a12.323,12.323,0,0,0,1.981-6.706c2.134-1.3,5.334-2.515,4.725-5.563a29.729,29.729,0,0,0,2.667-1.448L63.878,42.9c.533,0,1.067.076,1.677.076-.076-.457-.152-.991-.229-1.448a19.707,19.707,0,0,1-2.515-1.3,12.64,12.64,0,0,0,3.963-5.944c.457.076,1.372.152,1.829.229v-.914c-.533.076-1.524.152-1.981.229V32.006c.61-.3,1.143-.61,1.753-.991.076-.457.152-1.372.229-1.829.914.229,1.829.533,2.743.838H72.49c.762-.229,1.524-.457,2.286-.762.533-.533.991-1.143,1.524-1.677-1.219,0-2.439.076-3.582.152a7.508,7.508,0,0,0,.152-1.3c1.448-1.219,2.9-2.439,4.267-3.734h.991c.3.61.686,1.3.991,1.905a10.113,10.113,0,0,0,6.325-3.886c-.3-1.143-.533-2.362-.762-3.582A5.358,5.358,0,0,1,87.807,18.9c.762-.229,1.524-.457,2.286-.762,1.905-1.219,4.344-1.6,5.944-3.353,1.143-1.143,2.21-2.439,3.277-3.658,1.524-.3,2.972-.61,4.5-.762.076.533.152,1.6.229,2.134,2.667-.3,4.877-1.981,6.858-3.658,2.058-1.753,4.191-3.429,6.173-5.182.838,0,1.677,0,2.515.076a13.825,13.825,0,0,1-4.191,4.725c-4.725,3.81-10.364,6.249-15.241,9.907a7.449,7.449,0,0,0-2.134,2.743c-.61,1.067-1.219,2.058-1.829,3.124-3.124,1.143-4.725,4.191-7.468,5.944-3.277,2.21-6.4,4.572-9.6,6.858-3.658,2.591-7.163,5.715-9.3,9.754-.229.838-.457,1.6-.686,2.439a40.327,40.327,0,0,0-.991,4.115c2.667-.991,3.81-3.734,5.639-5.792,2.743-3.2,4.877-6.858,8.306-9.449A196.6,196.6,0,0,1,99.314,25.757c.686,0,1.981,0,2.667-.076-1.143,1.905-3.124,3.048-4.953,4.115-2.82,1.6-4.8,4.344-7.544,6.02-6.173,3.505-11.05,8.687-15.241,14.327-1.981,2.972-4.191,5.944-5.487,9.3L68.07,61.5c-.076,4.877-.076,9.754-1.219,14.555-.381,5.106-1.448,10.212-.3,15.317a8.859,8.859,0,0,0,.3,1.372c1.143,2.058,2.134,4.115,3.429,6.02a28.729,28.729,0,0,1,.3,4.42c-.838.3-1.6.686-2.439,1.067-.229.533-.457,1.143-.686,1.753.229,1.143.533,2.286.686,3.429-1.677,1.372-3.734,2.667-6.02,2.439-3.81-.381-6.554-3.277-9.3-5.487-2.286-2.058-5.868-2.591-7.239-5.715a35.672,35.672,0,0,0-1.372-3.658c-.3-.838-.61-1.753-.838-2.591-.3-.991-.61-1.905-.991-2.9-.762-2.667-1.524-5.334-2.362-8-.381-1.448-.762-2.9-1.219-4.267-1.219-4.344-2.743-8.611-4.344-12.8-.381-.991-.838-2.058-1.219-3.048-1.372-3.353-3.048-6.554-4.649-9.83-.457-.991-.991-1.981-1.448-2.972-2.591-5.639-5.334-11.355-9.983-15.622-2.21-2.286-4.725-4.191-7.087-6.325S6.115,23.7,3.9,21.413a16.775,16.775,0,0,1-3.81-5.639A33.971,33.971,0,0,1,.552,7.925,14.764,14.764,0,0,1,.781,5.182C3.524,4.039,5.429,1.6,8.172.3Z" transform="translate(0 0)"/>
    <g id="Group_1" data-name="Group 1" transform="translate(75.919 96.094)">
      <path id="Path_2" data-name="Path 2" class="cls-2" d="M99.6,126.481c0-.229.229-.381.533-.381H245.99c.3,0,.533.152.533.381s-.229.381-.533.381H100.21C99.829,126.862,99.6,126.71,99.6,126.481Z" transform="translate(-99.6 -126.1)"/>
    </g>
    <path id="Path_3" data-name="Path 3" class="cls-3" d="M107.658,111.476H104V86.1h2.972l8.383,12.345L123.737,86.1h2.9v25.376h-3.658V93.644l-6.63,9.83h-2.058l-6.63-9.83Z" transform="translate(-24.728 -20.488)"/>
    <path id="Path_4" data-name="Path 4" class="cls-3" d="M155.479,103.913h-9.068c-.991,2.286-2.286,5.334-3.048,7.468H139.4L149.611,85.7h2.667l10.211,25.681H158.6Zm-7.7-3.429h6.325l-3.124-8.916Z" transform="translate(-33.151 -20.392)"/>
    <path id="Path_5" data-name="Path 5" class="cls-3" d="M179.953,98.6h4.267a4.422,4.422,0,1,0,0-8.84h-5.639V111.4H175V86.1h9.221a7.83,7.83,0,0,1,8.23,8.078,7.658,7.658,0,0,1-6.554,7.773l8,9.526h-4.725l-9.221-11.126Z" transform="translate(-41.622 -20.488)"/>
    <path id="Path_6" data-name="Path 6" class="cls-3" d="M228,111.476V86.1h2.82l12.345,17.908V86.1h3.658v25.376h-2.9L231.658,93.721v17.756Z" transform="translate(-54.234 -20.488)"/>
    <path id="Path_7" data-name="Path 7" class="cls-3" d="M274.079,103.913h-9.068c-.991,2.286-2.286,5.334-3.048,7.468H258L268.211,85.7h2.667l10.211,25.681h-4.039Zm-7.773-3.429h6.325l-3.124-8.916Z" transform="translate(-61.372 -20.392)"/>
    <path id="Path_8" data-name="Path 8" class="cls-3" d="M212.82,107.842V89.782h2.362V86.2H206.8v3.582h2.362v18.061H206.8V111.5h8.383v-3.658Z" transform="translate(-49.189 -20.511)"/>
    <g id="Group_2" data-name="Group 2" transform="translate(95.123 100.591)">
      <path id="Path_9" data-name="Path 9" class="cls-1" d="M133.564,133.938v1.981a4.593,4.593,0,0,0-3.048-1.219,3.748,3.748,0,0,0-2.9,1.219,4.39,4.39,0,0,0-1.219,3.048,4.163,4.163,0,0,0,4.191,4.191,3.022,3.022,0,0,0,1.524-.3,7.052,7.052,0,0,0,.762-.381,5.339,5.339,0,0,0,.762-.61v2.058a6.331,6.331,0,0,1-3.048.838,5.725,5.725,0,0,1-5.792-5.792,5.417,5.417,0,0,1,1.448-3.81,5.628,5.628,0,0,1,7.316-1.219Z" transform="translate(-124.8 -132.262)"/>
      <path id="Path_10" data-name="Path 10" class="cls-1" d="M139.3,142.358a3.629,3.629,0,0,1,1.067-2.591,3.867,3.867,0,0,1,5.334,0,3.505,3.505,0,0,1,1.067,2.667A3.678,3.678,0,0,1,145.7,145.1a3.993,3.993,0,0,1-2.743,1.067,3.678,3.678,0,0,1-2.667-1.067A3.928,3.928,0,0,1,139.3,142.358Zm1.677,0a2.339,2.339,0,0,0,.533,1.677,1.858,1.858,0,0,0,1.524.61,2.128,2.128,0,0,0,1.524-.61,2.372,2.372,0,0,0,.61-1.677,2.511,2.511,0,0,0-.61-1.677,2.21,2.21,0,0,0-3.048,0A2.463,2.463,0,0,0,140.977,142.358Z" transform="translate(-128.25 -133.594)"/>
      <path id="Path_11" data-name="Path 11" class="cls-1" d="M152.5,138.852h1.677v.686a2.9,2.9,0,0,1,1.981-.838,2.317,2.317,0,0,1,1.905.762,3.239,3.239,0,0,1,.61,2.134v4.344H157v-3.963a2.266,2.266,0,0,0-.3-1.448c-.152-.3-.533-.381-1.067-.381a1.2,1.2,0,0,0-1.143.533,3.764,3.764,0,0,0-.3,1.829v3.429H152.5v-7.087Z" transform="translate(-131.391 -133.594)"/>
      <path id="Path_12" data-name="Path 12" class="cls-1" d="M169.339,132h1.677v12.345h-1.677v-.762a3.182,3.182,0,0,1-2.21.914,3.287,3.287,0,0,1-2.439-1.067,4.161,4.161,0,0,1-.991-2.743,3.621,3.621,0,0,1,.991-2.667,3.125,3.125,0,0,1,2.362-1.067,2.851,2.851,0,0,1,2.21.991V132Zm-3.886,8.764a2.463,2.463,0,0,0,.533,1.677,1.77,1.77,0,0,0,1.448.686,1.951,1.951,0,0,0,1.448-.61,2.9,2.9,0,0,0,0-3.353,1.708,1.708,0,0,0-1.448-.61,2.082,2.082,0,0,0-1.448.61A2.873,2.873,0,0,0,165.453,140.764Z" transform="translate(-134.056 -132)"/>
      <path id="Path_13" data-name="Path 13" class="cls-1" d="M176.6,142.358a3.629,3.629,0,0,1,1.067-2.591,3.867,3.867,0,0,1,5.334,0,3.505,3.505,0,0,1,1.067,2.667A3.678,3.678,0,0,1,183,145.1a3.993,3.993,0,0,1-2.743,1.067,3.678,3.678,0,0,1-2.667-1.067A3.928,3.928,0,0,1,176.6,142.358Zm1.677,0a2.339,2.339,0,0,0,.533,1.677,1.858,1.858,0,0,0,1.524.61,2.128,2.128,0,0,0,1.524-.61,2.372,2.372,0,0,0,.61-1.677,2.511,2.511,0,0,0-.61-1.677,2.21,2.21,0,0,0-3.048,0A2.463,2.463,0,0,0,178.277,142.358Z" transform="translate(-137.126 -133.594)"/>
      <path id="Path_14" data-name="Path 14" class="cls-1" d="M189.8,138.852h1.677v.686a5.557,5.557,0,0,1,.838-.686,1.65,1.65,0,0,1,.914-.152,2.173,2.173,0,0,1,1.905,1.067,2.567,2.567,0,0,1,2.134-1.067c1.6,0,2.439.991,2.439,2.9v4.42H198.03v-4.039a3.342,3.342,0,0,0-.229-1.448.875.875,0,0,0-.838-.457,1.034,1.034,0,0,0-.991.533,3.115,3.115,0,0,0-.3,1.677v3.658h-1.677v-3.963c0-1.3-.381-1.905-1.067-1.905a.967.967,0,0,0-.991.533,3.152,3.152,0,0,0-.3,1.6v3.658h-1.677v-7.011Z" transform="translate(-140.267 -133.594)"/>
      <path id="Path_15" data-name="Path 15" class="cls-1" d="M206,134.667a1.042,1.042,0,1,1,.3.762A.978.978,0,0,1,206,134.667Zm1.905,2.972v7.087h-1.677v-7.087Z" transform="translate(-144.121 -132.381)"/>
      <path id="Path_16" data-name="Path 16" class="cls-1" d="M212.2,138.852h1.677v.686a2.9,2.9,0,0,1,1.981-.838,2.317,2.317,0,0,1,1.905.762,3.239,3.239,0,0,1,.61,2.134v4.344H216.7v-3.963a2.266,2.266,0,0,0-.3-1.448c-.152-.3-.533-.381-1.067-.381a1.2,1.2,0,0,0-1.143.533,3.764,3.764,0,0,0-.3,1.829v3.429H212.2v-7.087Z" transform="translate(-145.597 -133.594)"/>
      <path id="Path_17" data-name="Path 17" class="cls-1" d="M223.6,134.667a1.042,1.042,0,1,1,.3.762A.978.978,0,0,1,223.6,134.667Zm1.905,2.972v7.087h-1.677v-7.087Z" transform="translate(-148.309 -132.381)"/>
      <path id="Path_18" data-name="Path 18" class="cls-1" d="M231.477,138.9v4.115c0,1.143.457,1.753,1.372,1.753s1.372-.61,1.372-1.753V138.9H235.9v4.115a4.124,4.124,0,0,1-.229,1.448,2.9,2.9,0,0,1-.686.991,3.259,3.259,0,0,1-2.134.686,3.407,3.407,0,0,1-2.134-.686,2.132,2.132,0,0,1-.686-.991,3.582,3.582,0,0,1-.229-1.448V138.9Z" transform="translate(-149.785 -133.642)"/>
      <path id="Path_19" data-name="Path 19" class="cls-1" d="M241.5,138.852h1.677v.686a5.558,5.558,0,0,1,.838-.686,1.65,1.65,0,0,1,.914-.152,2.173,2.173,0,0,1,1.905,1.067,2.567,2.567,0,0,1,2.134-1.067c1.6,0,2.439.991,2.439,2.9v4.42H249.73v-4.039a3.342,3.342,0,0,0-.229-1.448.875.875,0,0,0-.838-.457,1.034,1.034,0,0,0-.991.533,3.115,3.115,0,0,0-.3,1.677v3.658h-1.677v-3.963c0-1.3-.381-1.905-1.067-1.905a.967.967,0,0,0-.991.533,3.152,3.152,0,0,0-.3,1.6v3.658h-1.677v-7.011Z" transform="translate(-152.569 -133.594)"/>
      <path id="Path_20" data-name="Path 20" class="cls-1" d="M261.972,140.087l-1.372.686c-.229-.457-.457-.686-.762-.686a.521.521,0,0,0-.533.533c0,.3.3.533.914.838a4.974,4.974,0,0,1,1.753,1.067,1.923,1.923,0,0,1,.457,1.3,2.207,2.207,0,0,1-.762,1.753,2.414,2.414,0,0,1-1.753.686,2.538,2.538,0,0,1-2.515-1.753l1.372-.686a5.175,5.175,0,0,1,.457.686,1.369,1.369,0,0,0,.686.3c.533,0,.838-.229.838-.762,0-.3-.229-.533-.61-.838a4112315311303.8,4112315311303.8,0,0,0-1.067-.457,2.755,2.755,0,0,1-.991-.686,1.872,1.872,0,0,1-.381-1.143,2.128,2.128,0,0,1,.61-1.524,2.459,2.459,0,0,1,1.6-.61A1.806,1.806,0,0,1,261.972,140.087Z" transform="translate(-156.352 -133.609)"/>
    </g>
  </g>
</svg>
