<?xml version="1.0" encoding="utf-8"?>
<!-- Generator: Adobe Illustrator 22.0.1, SVG Export Plug-In . SVG Version: 6.00 Build 0)  -->
<svg version="1.1" id="Layer_1" xmlns="http://www.w3.org/2000/svg" xmlns:xlink="http://www.w3.org/1999/xlink" x="0px" y="0px"
	 width="311.6px" height="40.9px" viewBox="0 0 311.6 40.9" style="enable-background:new 0 0 311.6 40.9;" xml:space="preserve">
<style type="text/css">
	.st0{fill:#386386;}
	.st1{fill:#FFFFFF;}
	.st2{fill:#244056;}
	.st3{fill:#5494C4;}
	.st4{font-family:'Seravek-Bold';}
	.st5{font-size:32.5639px;}
	.st6{font-size:18.1304px;}
</style>
<g id="Group_9" transform="translate(298 22.9)">
	<g id="Group_5" transform="translate(0 3.877)">
		<path id="Path_22" class="st0" d="M-275-23h-12.7c-3.6,0-5.9,0-8,2.2c-2.2,2.2-2.2,4.5-2.2,8V0c0,3.6,0,5.9,2.2,8
			c2.2,2.2,4.5,2.2,8.1,2.2h12.8c3.6,0,5.9,0,8-2.2c2.2-2.2,2.2-4.5,2.2-8.1v-12.7c0-3.6,0-5.9-2.2-8C-269.1-23-271.4-23-275-23"/>
		<g id="Group_4" transform="translate(1.848 1.768)">
			<path id="Path_23" class="st1" d="M-283.2,6.6C-291.4,6.6-298,0-298-8.2s6.6-14.8,14.8-14.8c8.2,0,14.8,6.6,14.8,14.8
				C-268.4-0.1-275.1,6.6-283.2,6.6 M-283.2-21.6c-7.5,0-13.5,6-13.5,13.5s6,13.5,13.5,13.5s13.5-6,13.5-13.5
				C-269.7-15.6-275.7-21.6-283.2-21.6C-283.2-21.6-283.2-21.6-283.2-21.6"/>
			<path id="Path_24" class="st1" d="M-283.4,6.6c-0.6,0.1-1.3,0-1.8-0.2c-0.2-0.1-0.4-0.3-0.4-0.6c-0.4-5,0.2-10,1.8-14.8
				c-3.6,1.1-7.1,3.3-7.6,4c0.6,0.1,1.2,0.2,1.8,0.2c1.5,0,3.2,0,3.5,1.4c0.6,1.9-4.4,4.8-6.6,5.9c-0.3,0.2-0.7,0.1-0.9-0.2
				c0,0,0-0.1,0-0.1c-0.2-0.3-0.1-0.7,0.2-0.9c0,0,0,0,0,0c4.1-2.2,6-4,5.9-4.5c-0.1-0.4-1.4-0.4-2.3-0.4c-1.4,0-3.1,0-3.2-1.4v-0.1
				c0.2-1.4,5.1-4.3,9.6-5.5c1.7-3.9,4.5-7.3,8.1-9.6c0.3-0.2,0.7-0.1,0.9,0.3c0.2,0.3,0.1,0.7-0.2,0.9c-3.2,1.9-5.7,4.8-7.2,8.1
				c0.8-0.2,1.5-0.2,2.3-0.2c3.3,0.1,5.2,1.8,5.4,5.1c0.4,6.5-7.9,12.3-8,12.4c-0.1,0-0.2,0.1-0.2,0.1C-282.7,6.5-283,6.6-283.4,6.6
				 M-284.4,5.2c0.7,0.1,1.4,0.1,2.1,0c1.2-0.8,7.5-6,7.2-11.1c-0.2-2.2-1.2-3.5-3.1-3.8c-1.3-0.2-2.7-0.1-4,0.2
				C-284.1-4.8-284.8,0.2-284.4,5.2"/>
		</g>
	</g>
	<g id="Group_8" transform="translate(267.899 0.1)">
		<g id="Group_7">
			<path id="Path_38" class="st2" d="M-295.7,5.3l0.1-0.2c0.3-0.3,0.7-0.7,1.2-1.1l17-13.3l0,0l3.6-2.8c0.8-0.4,1.2-1.3,1-2.2
				c-0.4-2.8,0.6-5.5,2.7-7.4c-2.4-0.9-4.9-1.4-7.4-1.4c-11.4,0-20.5,9.3-20.5,20.6c0,2.9,0.6,5.8,1.8,8.4
				C-296,5.8-295.8,5.5-295.7,5.3z"/>
			<path id="Path_39" class="st2" d="M-259.6-3.3c-0.5,0.1-1.1,0.2-1.6,0.2c-1,0-2-0.2-3-0.5c-0.2-0.1-0.4-0.1-0.6-0.1
				c-0.1,0-0.1,0-0.2,0.1c-0.6,0.4-1,0.8-1.5,1.2l-19.6,17l-0.1,0.1c-0.3,0.3-0.7,0.5-1.1,0.7c3,1.6,6.3,2.5,9.7,2.5
				c11.3,0,20.5-9.1,20.5-20.5c0,0,0,0,0,0c0-0.5,0-1.1-0.1-1.6C-257.9-3.8-258.8-3.5-259.6-3.3z"/>
		</g>
		<path id="Path_40" class="st3" d="M-254.3-13.2c0-0.2-0.1-0.4-0.3-0.6c-0.2-0.2-0.5-0.2-0.7,0l-0.5,0.2c-1,0.6-2,1-3.1,1.6
			c-0.7,0.5-1.7,0.5-2.4-0.1c-1.1-0.9-1.9-2.2-1.9-3.6c0-1,0.5-2,1.4-2.4c0.8-0.4,1.7-0.9,2.6-1.4l0.6-0.3c0.2-0.2,0.4-0.3,0.4-0.6
			c0-0.3-0.1-0.5-0.3-0.6c-0.1-0.1-0.3-0.2-0.5-0.2c-2.7-1.4-5.9-1.2-8.4,0.6c-2.3,1.6-3.3,3.6-2.9,6c0.3,1.9-0.3,3.3-2,4.7
			c-0.6,0.4-1,0.9-1.6,1.3l-1.9,1.5h0.1l-17,13.2c-0.3,0.3-0.6,0.6-1,0.9l0,0c-1.3,1.5-1.3,3.7-0.1,5.2c1.2,1.6,3.4,2,5.1,1
			c0.3-0.2,0.7-0.4,1-0.6h0.1l19.5-16.9c0.6-0.5,1.1-1,1.8-1.4c0.9-0.6,2-0.8,3.1-0.3c1.1,0.3,2.2,0.4,3.3,0.2
			c1.1-0.2,2.1-0.7,2.9-1.4C-255.4-8.7-254.3-10.9-254.3-13.2L-254.3-13.2z M-290.4,11.6c-1.3,0-2.3-1-2.3-2.3s1-2.3,2.3-2.3
			s2.3,1,2.3,2.3c0,0,0,0,0,0C-288,10.5-289.1,11.6-290.4,11.6z"/>
		<path id="Path_41" class="st1" d="M-287.6-13.3c0.1-0.2,0.2-0.4,0.2-0.6c0-0.2-0.1-0.3-0.2-0.5c-0.1-0.2-0.2-0.2-0.5-0.2
			c-0.3,0-0.6,0.2-1,0.7l-1-0.6c0.2-0.3,0.5-0.6,0.8-0.9c0.3-0.2,0.7-0.3,1.1-0.3c0.4,0,0.9,0.2,1.2,0.5c0.3,0.3,0.5,0.7,0.6,1.2
			c0,0.3-0.1,0.6-0.2,0.8c-0.2,0.3-0.5,0.7-0.8,1l-1,1h2.1v1h-3.8v-0.9l1.6-1.6C-288-12.7-287.8-13-287.6-13.3z"/>
		<path id="Path_42" class="st1" d="M-283.1-12.3v-1h1.1v1h0.6v1h-0.6v1.3h-1.1v-1.3h-2.2v-0.9l1.9-3.2h1.3l-1.8,3.1H-283.1z"/>
		<path id="Path_43" class="st1" d="M-271.3,8.1V5.9h4.9v1.1l-2.7,5.6h-1.6l2.7-5.5h-1.7v0.9L-271.3,8.1z"/>
	</g>
	<text transform="matrix(1 0 0 1 -260.7183 0.476)" class="st3 st4 st5">MAINTENANCE</text>
	<text transform="matrix(1 0 0 1 -261.3237 15.9457)" class="st0 st4 st6">GENERAL AND PREVENTIVE</text>
</g>
</svg>
