<?xml version="1.0" encoding="utf-8"?>
<!-- Generator: Adobe Illustrator 22.0.1, SVG Export Plug-In . SVG Version: 6.00 Build 0)  -->
<svg version="1.1" id="Capa_1" xmlns="http://www.w3.org/2000/svg" xmlns:xlink="http://www.w3.org/1999/xlink" x="0px" y="0px"
	 viewBox="0 0 300 300" style="enable-background:new 0 0 300 300;" xml:space="preserve">
<style type="text/css">
	.st0{fill:#FFFFFF;}
	.st1{fill:#FFFFFF;stroke:#FFFFFF;stroke-width:3;stroke-linecap:round;stroke-linejoin:round;}
</style>
<path class="st0" d="M283,101.8c0-0.2,0-0.4,0-0.6l-0.1-0.5c0-0.2,0-0.3-0.1-0.5s-0.1-0.3-0.1-0.5s-0.1-0.3-0.1-0.4
	s-0.1-0.3-0.2-0.5s-0.1-0.3-0.2-0.4l-0.2-0.4c-0.1-0.2-0.1-0.3-0.2-0.4l-0.2-0.4c-0.1-0.2-0.2-0.3-0.3-0.5l-0.2-0.4
	c-0.1-0.1-0.2-0.3-0.3-0.4s-0.2-0.2-0.3-0.4s-0.2-0.2-0.3-0.4c-0.1-0.1-0.3-0.3-0.4-0.4c-0.1-0.1-0.2-0.2-0.2-0.2l-80.2-69.1
	l-0.1-0.1c-0.1-0.1-0.3-0.2-0.5-0.4l-0.3-0.2l-0.5-0.3l-0.4-0.2l-0.5-0.2l-0.4-0.2l-0.5-0.2c-0.1,0-0.3-0.1-0.4-0.1
	s-0.3-0.1-0.5-0.1l-0.4-0.1l-0.5-0.1L194,23h-0.5l-0.5,0H27c-5.5,0-10,4.5-10,10v234c0,5.5,4.5,10,10,10h246c5.5,0,10-4.5,10-10
	V102.1C283,102,283,101.9,283,101.8z M202.8,54.8l43.2,37.3h-43.2V54.8z M263,257H37V43h145.8v59.1c0,5.5,4.5,10,10,10H263V257z"/>
<rect x="49" y="97" class="st1" width="115" height="15"/>
<rect x="49.5" y="120.5" class="st1" width="115" height="15"/>
<rect x="50" y="144" class="st1" width="188.4" height="15"/>
<rect x="50.8" y="167.5" class="st1" width="188.4" height="15"/>
<rect x="51.6" y="191" class="st1" width="188.4" height="15"/>
<rect x="50" y="215" class="st1" width="188.4" height="15"/>
</svg>
